999
dxfrw 0.5.11
0
SECTION
2
HEADER
9
$ACADVER
1
AC1021
9
$HANDSEED
5
20000
9
$DWGCODEPAGE
3
ANSI_1252
9
$INSBASE
10
0
20
0
30
0
9
$EXTMIN
10
64.4499574567
20
4.938137056
30
0
9
$EXTMAX
10
384.449957457
20
397.330270778
30
0
9
$LIMMIN
10
0
20
0
9
$LIMMAX
10
420
20
297
9
$ORTHOMODE
70
0
9
$LTSCALE
40
1
9
$TEXTSTYLE
7
STANDARD
9
$CLAYER
8
0
9
$DIMASZ
40
2.5
9
$DIMLFAC
40
1
9
$DIMSCALE
40
1
9
$DIMEXO
40
0.625
9
$DIMEXE
40
1.25
9
$DIMTXT
40
2.5
9
$DIMTSZ
40
0
9
$DIMAUNIT
70
0
9
$DIMADEC
70
0
9
$DIMLUNIT
70
2
9
$DIMSTYLE
2
STANDARD
9
$DIMGAP
40
0.625
9
$DIMTIH
70
0
9
$LUNITS
70
2
9
$LUPREC
70
4
9
$AUNITS
70
0
9
$AUPREC
70
2
9
$SPLINESEGS
70
8
9
$GRIDMODE
70
1
9
$SNAPSTYLE
70
0
9
$PINSBASE
10
0
20
0
30
0
9
$PLIMMIN
10
0
20
0
9
$PLIMMAX
10
210
20
297
9
$INSUNITS
70
4
9
$PSVPSCALE
40
1
0
ENDSEC
0
SECTION
2
CLASSES
0
ENDSEC
0
SECTION
2
TABLES
0
TABLE
2
VPORT
5
8
330
0
100
AcDbSymbolTable
70
1
0
VPORT
5
31
330
2
100
AcDbSymbolTableRecord
100
AcDbViewportTableRecord
2
*ACTIVE
70
0
10
0
20
0
11
1
21
1
12
300.884246832
22
357.627868659
13
0
23
0
14
10
24
10
15
10
25
10
16
0
26
0
36
1
17
0
27
0
37
0
40
747.680664076
41
1.97704081633
42
50
43
0
44
0
50
0
51
0
71
0
72
100
73
1
74
3
75
0
76
1
77
0
78
0
281
0
65
1
110
0
120
0
130
0
111
1
121
0
131
0
112
0
122
1
132
0
79
0
146
0
348
10020
60
7
61
5
292
1
282
1
141
0
142
0
63
250
421
3358443
0
ENDTAB
0
TABLE
2
LTYPE
5
5
330
0
100
AcDbSymbolTable
70
4
0
LTYPE
5
14
330
5
100
AcDbSymbolTableRecord
100
AcDbLinetypeTableRecord
2
ByBlock
70
0
3

72
65
73
0
40
0
0
LTYPE
5
15
330
5
100
AcDbSymbolTableRecord
100
AcDbLinetypeTableRecord
2
ByLayer
70
0
3

72
65
73
0
40
0
0
LTYPE
5
16
330
5
100
AcDbSymbolTableRecord
100
AcDbLinetypeTableRecord
2
Continuous
70
0
3
Solid line
72
65
73
0
40
0
0
LTYPE
5
32
330
5
100
AcDbSymbolTableRecord
100
AcDbLinetypeTableRecord
2
DOT
70
0
3
Dot . . . . . . . . . . . . . . . . . . . . . .
72
65
73
2
40
6.35
49
0
74
0
49
-6.35
74
0
0
LTYPE
5
33
330
5
100
AcDbSymbolTableRecord
100
AcDbLinetypeTableRecord
2
DOT2
70
0
3
Dot (.5x) .....................................
72
65
73
2
40
3.175
49
0
74
0
49
-3.175
74
0
0
LTYPE
5
34
330
5
100
AcDbSymbolTableRecord
100
AcDbLinetypeTableRecord
2
DOTX2
70
0
3
Dot (2x) .  .  .  .  .  .  .  .  .  .  .  .  .
72
65
73
2
40
12.7
49
0
74
0
49
-12.7
74
0
0
LTYPE
5
35
330
5
100
AcDbSymbolTableRecord
100
AcDbLinetypeTableRecord
2
DASHED
70
0
3
Dot . . . . . . . . . . . . . . . . . . . . . .
72
65
73
2
40
19.05
49
12.7
74
0
49
-6.35
74
0
0
LTYPE
5
36
330
5
100
AcDbSymbolTableRecord
100
AcDbLinetypeTableRecord
2
DASHED2
70
0
3
Dashed (.5x) _ _ _ _ _ _ _ _ _ _ _ _ _ _ _ _ _
72
65
73
2
40
9.525
49
6.35
74
0
49
-3.175
74
0
0
LTYPE
5
37
330
5
100
AcDbSymbolTableRecord
100
AcDbLinetypeTableRecord
2
DASHEDX2
70
0
3
Dashed (2x) ____  ____  ____  ____  ____  ___
72
65
73
2
40
38.1
49
25.4
74
0
49
-12.7
74
0
0
LTYPE
5
38
330
5
100
AcDbSymbolTableRecord
100
AcDbLinetypeTableRecord
2
DASHDOT
70
0
3
Dash dot __ . __ . __ . __ . __ . __ . __ . __
72
65
73
4
40
25.4
49
12.7
74
0
49
-6.35
74
0
49
0
74
0
49
-6.35
74
0
0
LTYPE
5
39
330
5
100
AcDbSymbolTableRecord
100
AcDbLinetypeTableRecord
2
DASHDOT2
70
0
3
Dash dot (.5x) _._._._._._._._._._._._._._._.
72
65
73
4
40
12.7
49
6.35
74
0
49
-3.175
74
0
49
0
74
0
49
-3.175
74
0
0
LTYPE
5
3A
330
5
100
AcDbSymbolTableRecord
100
AcDbLinetypeTableRecord
2
DASHDOTX2
70
0
3
Dash dot (2x) ____  .  ____  .  ____  .  ___
72
65
73
4
40
50.8
49
25.4
74
0
49
-12.7
74
0
49
0
74
0
49
-12.7
74
0
0
LTYPE
5
3B
330
5
100
AcDbSymbolTableRecord
100
AcDbLinetypeTableRecord
2
DIVIDE
70
0
3
Divide ____ . . ____ . . ____ . . ____ . . ____
72
65
73
6
40
31.75
49
12.7
74
0
49
-6.35
74
0
49
0
74
0
49
-6.35
74
0
49
0
74
0
49
-6.35
74
0
0
LTYPE
5
3C
330
5
100
AcDbSymbolTableRecord
100
AcDbLinetypeTableRecord
2
DIVIDE2
70
0
3
Divide (.5x) __..__..__..__..__..__..__..__.._
72
65
73
6
40
15.875
49
6.35
74
0
49
-3.175
74
0
49
0
74
0
49
-3.175
74
0
49
0
74
0
49
-3.175
74
0
0
LTYPE
5
3D
330
5
100
AcDbSymbolTableRecord
100
AcDbLinetypeTableRecord
2
DIVIDEX2
70
0
3
Divide (2x) ________  .  .  ________  .  .  _
72
65
73
6
40
63.5
49
25.4
74
0
49
-12.7
74
0
49
0
74
0
49
-12.7
74
0
49
0
74
0
49
-12.7
74
0
0
LTYPE
5
3E
330
5
100
AcDbSymbolTableRecord
100
AcDbLinetypeTableRecord
2
BORDER
70
0
3
Border __ __ . __ __ . __ __ . __ __ . __ __ .
72
65
73
6
40
44.45
49
12.7
74
0
49
-6.35
74
0
49
12.7
74
0
49
-6.35
74
0
49
0
74
0
49
-6.35
74
0
0
LTYPE
5
3F
330
5
100
AcDbSymbolTableRecord
100
AcDbLinetypeTableRecord
2
BORDER2
70
0
3
Border (.5x) __.__.__.__.__.__.__.__.__.__.__.
72
65
73
6
40
22.225
49
6.35
74
0
49
-3.175
74
0
49
6.35
74
0
49
-3.175
74
0
49
0
74
0
49
-3.175
74
0
0
LTYPE
5
40
330
5
100
AcDbSymbolTableRecord
100
AcDbLinetypeTableRecord
2
BORDERX2
70
0
3
Border (2x) ____  ____  .  ____  ____  .  ___
72
65
73
6
40
88.9
49
25.4
74
0
49
-12.7
74
0
49
25.4
74
0
49
-12.7
74
0
49
0
74
0
49
-12.7
74
0
0
LTYPE
5
41
330
5
100
AcDbSymbolTableRecord
100
AcDbLinetypeTableRecord
2
CENTER
70
0
3
Center ____ _ ____ _ ____ _ ____ _ ____ _ ____
72
65
73
4
40
50.8
49
31.75
74
0
49
-6.35
74
0
49
6.35
74
0
49
-6.35
74
0
0
LTYPE
5
42
330
5
100
AcDbSymbolTableRecord
100
AcDbLinetypeTableRecord
2
CENTER2
70
0
3
Center (.5x) ___ _ ___ _ ___ _ ___ _ ___ _ ___
72
65
73
4
40
28.575
49
19.05
74
0
49
-3.175
74
0
49
3.175
74
0
49
-3.175
74
0
0
LTYPE
5
43
330
5
100
AcDbSymbolTableRecord
100
AcDbLinetypeTableRecord
2
CENTERX2
70
0
3
Center (2x) ________  __  ________  __  _____
72
65
73
4
40
101.6
49
63.5
74
0
49
-12.7
74
0
49
12.7
74
0
49
-12.7
74
0
0
ENDTAB
0
TABLE
2
LAYER
5
2
330
0
100
AcDbSymbolTable
70
1
0
LAYER
5
10
330
2
100
AcDbSymbolTableRecord
100
AcDbLayerTableRecord
2
0
70
0
62
7
6
CONTINUOUS
370
0
390
F
0
LAYER
5
44
330
2
100
AcDbSymbolTableRecord
100
AcDbLayerTableRecord
2
FirstCut
70
0
62
1
6
CONTINUOUS
370
0
390
F
0
LAYER
5
45
330
2
100
AcDbSymbolTableRecord
100
AcDbLayerTableRecord
2
engraving
70
0
62
4
6
CONTINUOUS
370
0
390
F
0
LAYER
5
46
330
2
100
AcDbSymbolTableRecord
100
AcDbLayerTableRecord
2
guides
70
1
62
3
6
CONTINUOUS
290
0
370
0
390
F
0
ENDTAB
0
TABLE
2
STYLE
5
3
330
0
100
AcDbSymbolTable
70
3
0
STYLE
5
47
330
2
100
AcDbSymbolTableRecord
100
AcDbTextStyleTableRecord
2
opengosttypea-regular
70
0
40
0
41
1
50
0
71
0
42
1
3
opengosttypea-regular
4

0
STYLE
5
48
330
2
100
AcDbSymbolTableRecord
100
AcDbTextStyleTableRecord
2
Standard
70
0
40
0
41
1
50
0
71
0
42
1
3
txt
4

0
ENDTAB
0
TABLE
2
VIEW
5
6
330
0
100
AcDbSymbolTable
70
0
0
ENDTAB
0
TABLE
2
UCS
5
7
330
0
100
AcDbSymbolTable
70
0
0
ENDTAB
0
TABLE
2
APPID
5
9
330
0
100
AcDbSymbolTable
70
1
0
APPID
5
12
330
9
100
AcDbSymbolTableRecord
100
AcDbRegAppTableRecord
2
ACAD
70
0
0
ENDTAB
0
TABLE
2
DIMSTYLE
5
A
330
0
100
AcDbSymbolTable
70
1
100
AcDbDimStyleTable
71
1
0
DIMSTYLE
105
49
330
A
100
AcDbSymbolTableRecord
100
AcDbDimStyleTableRecord
2
Standard
70
0
40
1
41
2.5
42
0.625
43
0.38
44
1.25
45
0
46
0
47
0
48
0
140
2.5
141
0.09
142
0
143
25.4
144
1
145
0
146
1
147
0.625
148
0
71
0
72
0
73
0
74
1
75
0
76
0
77
0
78
0
79
0
170
0
171
2
172
0
173
0
174
0
175
0
176
0
177
0
178
0
179
0
271
4
272
4
273
2
274
2
275
0
276
0
277
2
278
46
279
0
280
0
281
0
282
0
283
1
284
0
285
0
286
0
288
0
289
3
340
Standard
341

371
-2
372
-2
0
ENDTAB
0
TABLE
2
BLOCK_RECORD
5
1
330
0
100
AcDbSymbolTable
70
2
0
BLOCK_RECORD
5
1F
330
1
100
AcDbSymbolTableRecord
100
AcDbBlockTableRecord
2
*Model_Space
70
0
280
1
281
0
0
BLOCK_RECORD
5
1E
330
1
100
AcDbSymbolTableRecord
100
AcDbBlockTableRecord
2
*Paper_Space
70
0
280
1
281
0
0
BLOCK_RECORD
5
4A
330
1
100
AcDbSymbolTableRecord
100
AcDbBlockTableRecord
2
All
70
0
280
1
281
0
0
ENDTAB
0
ENDSEC
0
SECTION
2
BLOCKS
0
BLOCK
5
20
330
1F
100
AcDbEntity
8
0
100
AcDbBlockBegin
2
*Model_Space
70
0
10
0
20
0
30
0
3
*Model_Space
1

0
ENDBLK
5
21
330
1F
100
AcDbEntity
8
0
100
AcDbBlockEnd
0
BLOCK
5
1C
330
1B
100
AcDbEntity
8
0
100
AcDbBlockBegin
2
*Paper_Space
70
0
10
0
20
0
30
0
3
*Paper_Space
1

0
ENDBLK
5
1D
330
1F
100
AcDbEntity
8
0
100
AcDbBlockEnd
0
BLOCK
5
4B
330
4A
100
AcDbEntity
8
0
100
AcDbBlockBegin
2
All
70
0
10
0
20
0
3
All
1

0
LINE
5
4D
100
AcDbEntity
8
0
6
ByLayer
62
256
370
-1
100
AcDbLine
10
-320
20
0
11
-320
21
-193.227539063
0
ARC
5
4E
100
AcDbEntity
8
0
6
ByLayer
62
256
370
-1
100
AcDbCircle
10
-317
20
-193.227539063
40
3
100
AcDbArc
50
180
51
270
0
LINE
5
4F
100
AcDbEntity
8
0
6
ByLayer
62
256
370
-1
100
AcDbLine
10
0
20
-193.227539063
11
0
21
0
0
ARC
5
50
100
AcDbEntity
8
0
6
ByLayer
62
256
370
-1
100
AcDbCircle
10
-3
20
-193.227539063
40
3
100
AcDbArc
50
270
51
0
0
LINE
5
51
100
AcDbEntity
8
0
6
ByLayer
62
256
370
-1
100
AcDbLine
10
-317
20
-196.227539063
11
-240.238340049
21
-196.227539063
0
LINE
5
52
100
AcDbEntity
8
0
6
ByLayer
62
256
370
-1
100
AcDbLine
10
-202.936073006
20
-196.227539063
11
-3
21
-196.227539063
0
LINE
5
53
100
AcDbEntity
8
0
6
ByLayer
62
256
370
-1
100
AcDbLine
10
-240.238340048
20
-196.227539063
11
-202.936073006
21
-196.227539063
0
CIRCLE
5
54
100
AcDbEntity
8
FirstCut
6
ByLayer
62
256
370
-1
100
AcDbCircle
10
-106
20
146.227539062
40
13.1619199992
0
ELLIPSE
5
55
100
AcDbEntity
8
0
6
ByLayer
62
256
370
-1
100
AcDbEllipse
10
-160
20
11.9210316923
30
0
11
-0
21
-184.243562967
31
0
40
0.868415685323
41
1.57079632679
42
4.71238898038
0
LINE
5
56
100
AcDbEntity
8
0
6
ByLayer
62
256
370
-1
100
AcDbLine
10
-320
20
11.9210316923
11
-320
21
0
0
LINE
5
57
100
AcDbEntity
8
0
6
ByLayer
62
256
370
-1
100
AcDbLine
10
0
20
11.9210316923
11
0
21
0
0
LINE
5
58
100
AcDbEntity
8
engraving
6
ByLayer
62
256
370
-1
100
AcDbLine
10
-179
20
142.227539062
11
-179
21
140.227539062
0
LINE
5
59
100
AcDbEntity
8
engraving
6
ByLayer
62
256
370
-1
100
AcDbLine
10
-181
20
142.227539062
11
-181
21
140.227539062
0
LINE
5
5A
100
AcDbEntity
8
engraving
6
ByLayer
62
256
370
-1
100
AcDbLine
10
-183
20
142.227539062
11
-183
21
140.227539062
0
LINE
5
5B
100
AcDbEntity
8
engraving
6
ByLayer
62
256
370
-1
100
AcDbLine
10
-185
20
142.227539062
11
-185
21
140.227539062
0
LINE
5
5C
100
AcDbEntity
8
engraving
6
ByLayer
62
256
370
-1
100
AcDbLine
10
-177
20
142.227539062
11
-177
21
140.227539062
0
LINE
5
5D
100
AcDbEntity
8
engraving
6
ByLayer
62
256
370
-1
100
AcDbLine
10
-175
20
142.227539062
11
-175
21
140.227539062
0
LINE
5
5E
100
AcDbEntity
8
engraving
6
ByLayer
62
256
370
-1
100
AcDbLine
10
-173
20
142.227539062
11
-173
21
140.227539062
0
TEXT
5
5F
100
AcDbEntity
8
engraving
6
ByLayer
62
256
370
-1
100
AcDbText
10
-179
20
138.227539062
30
0
40
3
1
0
50
0
41
1
51
0
7
opengosttypea-regular
71
0
72
1
11
-179
21
138.227539062
31
0
210
0
220
0
230
1
100
AcDbText
73
2
0
TEXT
5
60
100
AcDbEntity
8
engraving
6
ByLayer
62
256
370
-1
100
AcDbText
10
-177
20
138.227539062
30
0
40
3
1
2
50
0
41
1
51
0
7
opengosttypea-regular
71
0
72
1
11
-177
21
138.227539062
31
0
210
0
220
0
230
1
100
AcDbText
73
2
0
TEXT
5
61
100
AcDbEntity
8
engraving
6
ByLayer
62
256
370
-1
100
AcDbText
10
-181
20
138.227539062
30
0
40
3
1
2
50
0
41
1
51
0
7
opengosttypea-regular
71
0
72
1
11
-181
21
138.227539062
31
0
210
0
220
0
230
1
100
AcDbText
73
2
0
TEXT
5
62
100
AcDbEntity
8
engraving
6
ByLayer
62
256
370
-1
100
AcDbText
10
-183
20
138.227539062
30
0
40
3
1
4
50
0
41
1
51
0
7
opengosttypea-regular
71
0
72
1
11
-183
21
138.227539062
31
0
210
0
220
0
230
1
100
AcDbText
73
2
0
TEXT
5
63
100
AcDbEntity
8
engraving
6
ByLayer
62
256
370
-1
100
AcDbText
10
-175
20
138.227539062
30
0
40
3
1
4
50
0
41
1
51
0
7
opengosttypea-regular
71
0
72
1
11
-175
21
138.227539062
31
0
210
0
220
0
230
1
100
AcDbText
73
2
0
TEXT
5
64
100
AcDbEntity
8
engraving
6
ByLayer
62
256
370
-1
100
AcDbText
10
-173
20
138.227539062
30
0
40
3
1
6
50
0
41
1
51
0
7
opengosttypea-regular
71
0
72
1
11
-173
21
138.227539062
31
0
210
0
220
0
230
1
100
AcDbText
73
2
0
TEXT
5
65
100
AcDbEntity
8
engraving
6
ByLayer
62
256
370
-1
100
AcDbText
10
-185
20
138.227539062
30
0
40
3
1
6
50
0
41
1
51
0
7
opengosttypea-regular
71
0
72
1
11
-185
21
138.227539062
31
0
210
0
220
0
230
1
100
AcDbText
73
2
0
LINE
5
66
100
AcDbEntity
8
engraving
6
ByLayer
62
256
370
-1
100
AcDbLine
10
-140.999999046
20
142.227539062
11
-140.999999046
21
140.227539062
0
LINE
5
67
100
AcDbEntity
8
engraving
6
ByLayer
62
256
370
-1
100
AcDbLine
10
-142.999999046
20
142.227539062
11
-142.999999046
21
140.227539062
0
LINE
5
68
100
AcDbEntity
8
engraving
6
ByLayer
62
256
370
-1
100
AcDbLine
10
-144.999999046
20
142.227539062
11
-144.999999046
21
140.227539062
0
LINE
5
69
100
AcDbEntity
8
engraving
6
ByLayer
62
256
370
-1
100
AcDbLine
10
-146.999999046
20
142.227539062
11
-146.999999046
21
140.227539062
0
LINE
5
6A
100
AcDbEntity
8
engraving
6
ByLayer
62
256
370
-1
100
AcDbLine
10
-138.999999046
20
142.227539062
11
-138.999999046
21
140.227539062
0
LINE
5
6B
100
AcDbEntity
8
engraving
6
ByLayer
62
256
370
-1
100
AcDbLine
10
-136.999999046
20
142.227539062
11
-136.999999046
21
140.227539062
0
LINE
5
6C
100
AcDbEntity
8
engraving
6
ByLayer
62
256
370
-1
100
AcDbLine
10
-134.999999046
20
142.227539062
11
-134.999999046
21
140.227539062
0
TEXT
5
6D
100
AcDbEntity
8
engraving
6
ByLayer
62
256
370
-1
100
AcDbText
10
-140.999999046
20
138.227539062
30
0
40
3
1
0
50
0
41
1
51
0
7
opengosttypea-regular
71
0
72
1
11
-140.999999046
21
138.227539062
31
0
210
0
220
0
230
1
100
AcDbText
73
2
0
TEXT
5
6E
100
AcDbEntity
8
engraving
6
ByLayer
62
256
370
-1
100
AcDbText
10
-138.999999046
20
138.227539062
30
0
40
3
1
2
50
0
41
1
51
0
7
opengosttypea-regular
71
0
72
1
11
-138.999999046
21
138.227539062
31
0
210
0
220
0
230
1
100
AcDbText
73
2
0
TEXT
5
6F
100
AcDbEntity
8
engraving
6
ByLayer
62
256
370
-1
100
AcDbText
10
-142.999999046
20
138.227539062
30
0
40
3
1
2
50
0
41
1
51
0
7
opengosttypea-regular
71
0
72
1
11
-142.999999046
21
138.227539062
31
0
210
0
220
0
230
1
100
AcDbText
73
2
0
TEXT
5
70
100
AcDbEntity
8
engraving
6
ByLayer
62
256
370
-1
100
AcDbText
10
-144.999999046
20
138.227539062
30
0
40
3
1
4
50
0
41
1
51
0
7
opengosttypea-regular
71
0
72
1
11
-144.999999046
21
138.227539062
31
0
210
0
220
0
230
1
100
AcDbText
73
2
0
TEXT
5
71
100
AcDbEntity
8
engraving
6
ByLayer
62
256
370
-1
100
AcDbText
10
-136.999999046
20
138.227539062
30
0
40
3
1
4
50
0
41
1
51
0
7
opengosttypea-regular
71
0
72
1
11
-136.999999046
21
138.227539062
31
0
210
0
220
0
230
1
100
AcDbText
73
2
0
TEXT
5
72
100
AcDbEntity
8
engraving
6
ByLayer
62
256
370
-1
100
AcDbText
10
-134.999999046
20
138.227539062
30
0
40
3
1
6
50
0
41
1
51
0
7
opengosttypea-regular
71
0
72
1
11
-134.999999046
21
138.227539062
31
0
210
0
220
0
230
1
100
AcDbText
73
2
0
TEXT
5
73
100
AcDbEntity
8
engraving
6
ByLayer
62
256
370
-1
100
AcDbText
10
-146.999999046
20
138.227539062
30
0
40
3
1
6
50
0
41
1
51
0
7
opengosttypea-regular
71
0
72
1
11
-146.999999046
21
138.227539062
31
0
210
0
220
0
230
1
100
AcDbText
73
2
0
ARC
5
74
100
AcDbEntity
8
FirstCut
6
ByLayer
62
256
370
-1
100
AcDbCircle
10
-135
20
146.227539062
40
2.825
100
AcDbArc
50
270
51
90
0
ARC
5
75
100
AcDbEntity
8
FirstCut
6
ByLayer
62
256
370
-1
100
AcDbCircle
10
-146.999998093
20
146.227539062
40
2.825
100
AcDbArc
50
90
51
270
0
ARC
5
76
100
AcDbEntity
8
FirstCut
6
ByLayer
62
256
370
-1
100
AcDbCircle
10
-173
20
146.227539062
40
2.825
100
AcDbArc
50
270
51
90
0
ARC
5
77
100
AcDbEntity
8
FirstCut
6
ByLayer
62
256
370
-1
100
AcDbCircle
10
-185
20
146.227539062
40
2.825
100
AcDbArc
50
90
51
270
0
LINE
5
78
100
AcDbEntity
8
FirstCut
6
ByLayer
62
256
370
-1
100
AcDbLine
10
-185
20
149.052539062
11
-173
21
149.052539062
0
LINE
5
79
100
AcDbEntity
8
FirstCut
6
ByLayer
62
256
370
-1
100
AcDbLine
10
-173
20
143.402539062
11
-185
21
143.402539062
0
ARC
5
7A
100
AcDbEntity
8
FirstCut
6
ByLayer
62
256
370
-1
100
AcDbCircle
10
-276
20
-188.772460362
40
2.825
100
AcDbArc
50
90
51
270
0
ARC
5
7B
100
AcDbEntity
8
FirstCut
6
ByLayer
62
256
370
-1
100
AcDbCircle
10
-264
20
-188.772460362
40
2.825
100
AcDbArc
50
270
51
90
0
ARC
5
7C
100
AcDbEntity
8
FirstCut
6
ByLayer
62
256
370
-1
100
AcDbCircle
10
-159.500002697
20
-188.772460362
40
2.825
100
AcDbArc
50
90
51
270
0
ARC
5
7D
100
AcDbEntity
8
FirstCut
6
ByLayer
62
256
370
-1
100
AcDbCircle
10
-147.5
20
-188.772460938
40
2.82499942445
100
AcDbArc
50
270
51
90
0
ARC
5
7E
100
AcDbEntity
8
FirstCut
6
ByLayer
62
256
370
-1
100
AcDbCircle
10
-56
20
-188.772460938
40
2.82500057555
100
AcDbArc
50
90
51
270
0
ARC
5
7F
100
AcDbEntity
8
FirstCut
6
ByLayer
62
256
370
-1
100
AcDbCircle
10
-44
20
-188.772460938
40
2.82499942445
100
AcDbArc
50
270
51
90
0
LINE
5
80
100
AcDbEntity
8
FirstCut
6
ByLayer
62
256
370
-1
100
AcDbLine
10
-276
20
-185.947460362
11
-264
21
-185.947460362
0
LINE
5
81
100
AcDbEntity
8
FirstCut
6
ByLayer
62
256
370
-1
100
AcDbLine
10
-56
20
-191.597461514
11
-44
21
-191.597460362
0
CIRCLE
5
82
100
AcDbEntity
8
FirstCut
6
ByLayer
62
256
370
-1
100
AcDbCircle
10
-179
20
36.227539062
40
2.825
0
CIRCLE
5
83
100
AcDbEntity
8
FirstCut
6
ByLayer
62
256
370
-1
100
AcDbCircle
10
-141
20
36.227539062
40
2.825
0
LINE
5
84
100
AcDbEntity
8
FirstCut
6
ByLayer
62
256
370
-1
100
AcDbLine
10
-146.999998093
20
149.052539062
11
-135
21
149.052539062
0
LINE
5
85
100
AcDbEntity
8
FirstCut
6
ByLayer
62
256
370
-1
100
AcDbLine
10
-135
20
143.402539062
11
-146.999998093
21
143.402539062
0
LINE
5
86
100
AcDbEntity
8
engraving
6
ByLayer
62
256
370
-1
100
AcDbLine
10
-49.9999998895
20
-182.772460938
11
-49.9999998895
21
-184.772460938
0
LINE
5
87
100
AcDbEntity
8
engraving
6
ByLayer
62
256
370
-1
100
AcDbLine
10
-51.9999998895
20
-182.772460938
11
-51.9999998895
21
-184.772460938
0
LINE
5
88
100
AcDbEntity
8
engraving
6
ByLayer
62
256
370
-1
100
AcDbLine
10
-53.9999998895
20
-182.772460938
11
-53.9999998895
21
-184.772460938
0
LINE
5
89
100
AcDbEntity
8
engraving
6
ByLayer
62
256
370
-1
100
AcDbLine
10
-55.9999998895
20
-182.772460938
11
-55.9999998895
21
-184.772460938
0
LINE
5
8A
100
AcDbEntity
8
engraving
6
ByLayer
62
256
370
-1
100
AcDbLine
10
-47.9999998895
20
-182.772460938
11
-47.9999998895
21
-184.772460938
0
LINE
5
8B
100
AcDbEntity
8
engraving
6
ByLayer
62
256
370
-1
100
AcDbLine
10
-45.9999998895
20
-182.772460938
11
-45.9999998895
21
-184.772460938
0
LINE
5
8C
100
AcDbEntity
8
engraving
6
ByLayer
62
256
370
-1
100
AcDbLine
10
-43.9999998895
20
-182.772460938
11
-43.9999998895
21
-184.772460938
0
TEXT
5
8D
100
AcDbEntity
8
engraving
6
ByLayer
62
256
370
-1
100
AcDbText
10
-55.9999998895
20
-180.772460938
30
0
40
3
1
6
50
0
41
1
51
0
7
opengosttypea-regular
71
0
72
1
11
-55.9999998895
21
-180.772460938
31
0
210
0
220
0
230
1
100
AcDbText
73
2
0
TEXT
5
8E
100
AcDbEntity
8
engraving
6
ByLayer
62
256
370
-1
100
AcDbText
10
-49.9999998895
20
-180.772460938
30
0
40
3
1
0
50
0
41
1
51
0
7
opengosttypea-regular
71
0
72
1
11
-49.9999998895
21
-180.772460938
31
0
210
0
220
0
230
1
100
AcDbText
73
2
0
TEXT
5
8F
100
AcDbEntity
8
engraving
6
ByLayer
62
256
370
-1
100
AcDbText
10
-47.9999998895
20
-180.772460938
30
0
40
3
1
2
50
0
41
1
51
0
7
opengosttypea-regular
71
0
72
1
11
-47.9999998895
21
-180.772460938
31
0
210
0
220
0
230
1
100
AcDbText
73
2
0
TEXT
5
90
100
AcDbEntity
8
engraving
6
ByLayer
62
256
370
-1
100
AcDbText
10
-51.9999998895
20
-180.772460938
30
0
40
3
1
2
50
0
41
1
51
0
7
opengosttypea-regular
71
0
72
1
11
-51.9999998895
21
-180.772460938
31
0
210
0
220
0
230
1
100
AcDbText
73
2
0
TEXT
5
91
100
AcDbEntity
8
engraving
6
ByLayer
62
256
370
-1
100
AcDbText
10
-53.9999998895
20
-180.772460938
30
0
40
3
1
4
50
0
41
1
51
0
7
opengosttypea-regular
71
0
72
1
11
-53.9999998895
21
-180.772460938
31
0
210
0
220
0
230
1
100
AcDbText
73
2
0
TEXT
5
92
100
AcDbEntity
8
engraving
6
ByLayer
62
256
370
-1
100
AcDbText
10
-45.9999998895
20
-180.772460938
30
0
40
3
1
4
50
0
41
1
51
0
7
opengosttypea-regular
71
0
72
1
11
-45.9999998895
21
-180.772460938
31
0
210
0
220
0
230
1
100
AcDbText
73
2
0
TEXT
5
93
100
AcDbEntity
8
engraving
6
ByLayer
62
256
370
-1
100
AcDbText
10
-43.9999998895
20
-180.772460938
30
0
40
3
1
6
50
0
41
1
51
0
7
opengosttypea-regular
71
0
72
1
11
-43.9999998895
21
-180.772460938
31
0
210
0
220
0
230
1
100
AcDbText
73
2
0
LINE
5
94
100
AcDbEntity
8
engraving
6
ByLayer
62
256
370
-1
100
AcDbLine
10
-153.499999802
20
-182.772460938
11
-153.499999802
21
-184.772460938
0
LINE
5
95
100
AcDbEntity
8
engraving
6
ByLayer
62
256
370
-1
100
AcDbLine
10
-155.499999802
20
-182.772460938
11
-155.499999802
21
-184.772460938
0
LINE
5
96
100
AcDbEntity
8
engraving
6
ByLayer
62
256
370
-1
100
AcDbLine
10
-157.499999802
20
-182.772460938
11
-157.499999802
21
-184.772460938
0
LINE
5
97
100
AcDbEntity
8
engraving
6
ByLayer
62
256
370
-1
100
AcDbLine
10
-159.499999802
20
-182.772460938
11
-159.499999802
21
-184.772460938
0
LINE
5
98
100
AcDbEntity
8
engraving
6
ByLayer
62
256
370
-1
100
AcDbLine
10
-151.499999802
20
-182.772460938
11
-151.499999802
21
-184.772460938
0
LINE
5
99
100
AcDbEntity
8
engraving
6
ByLayer
62
256
370
-1
100
AcDbLine
10
-149.499999802
20
-182.772460938
11
-149.499999802
21
-184.772460938
0
LINE
5
9A
100
AcDbEntity
8
engraving
6
ByLayer
62
256
370
-1
100
AcDbLine
10
-147.499999802
20
-182.772460938
11
-147.499999802
21
-184.772460938
0
TEXT
5
9B
100
AcDbEntity
8
engraving
6
ByLayer
62
256
370
-1
100
AcDbText
10
-159.499999802
20
-180.772460938
30
0
40
3
1
6
50
0
41
1
51
0
7
opengosttypea-regular
71
0
72
1
11
-159.499999802
21
-180.772460938
31
0
210
0
220
0
230
1
100
AcDbText
73
2
0
TEXT
5
9C
100
AcDbEntity
8
engraving
6
ByLayer
62
256
370
-1
100
AcDbText
10
-153.499999802
20
-180.772460938
30
0
40
3
1
0
50
0
41
1
51
0
7
opengosttypea-regular
71
0
72
1
11
-153.499999802
21
-180.772460938
31
0
210
0
220
0
230
1
100
AcDbText
73
2
0
TEXT
5
9D
100
AcDbEntity
8
engraving
6
ByLayer
62
256
370
-1
100
AcDbText
10
-151.499999802
20
-180.772460938
30
0
40
3
1
2
50
0
41
1
51
0
7
opengosttypea-regular
71
0
72
1
11
-151.499999802
21
-180.772460938
31
0
210
0
220
0
230
1
100
AcDbText
73
2
0
TEXT
5
9E
100
AcDbEntity
8
engraving
6
ByLayer
62
256
370
-1
100
AcDbText
10
-155.499999802
20
-180.772460938
30
0
40
3
1
2
50
0
41
1
51
0
7
opengosttypea-regular
71
0
72
1
11
-155.499999802
21
-180.772460938
31
0
210
0
220
0
230
1
100
AcDbText
73
2
0
TEXT
5
9F
100
AcDbEntity
8
engraving
6
ByLayer
62
256
370
-1
100
AcDbText
10
-157.499999802
20
-180.772460938
30
0
40
3
1
4
50
0
41
1
51
0
7
opengosttypea-regular
71
0
72
1
11
-157.499999802
21
-180.772460938
31
0
210
0
220
0
230
1
100
AcDbText
73
2
0
TEXT
5
A0
100
AcDbEntity
8
engraving
6
ByLayer
62
256
370
-1
100
AcDbText
10
-149.499999802
20
-180.772460938
30
0
40
3
1
4
50
0
41
1
51
0
7
opengosttypea-regular
71
0
72
1
11
-149.499999802
21
-180.772460938
31
0
210
0
220
0
230
1
100
AcDbText
73
2
0
TEXT
5
A1
100
AcDbEntity
8
engraving
6
ByLayer
62
256
370
-1
100
AcDbText
10
-147.499999802
20
-180.772460938
30
0
40
3
1
6
50
0
41
1
51
0
7
opengosttypea-regular
71
0
72
1
11
-147.499999802
21
-180.772460938
31
0
210
0
220
0
230
1
100
AcDbText
73
2
0
LINE
5
A2
100
AcDbEntity
8
engraving
6
ByLayer
62
256
370
-1
100
AcDbLine
10
-270.000001151
20
-182.772460938
11
-270.000001151
21
-184.772460938
0
LINE
5
A3
100
AcDbEntity
8
engraving
6
ByLayer
62
256
370
-1
100
AcDbLine
10
-272.000001151
20
-182.772460938
11
-272.000001151
21
-184.772460938
0
LINE
5
A4
100
AcDbEntity
8
engraving
6
ByLayer
62
256
370
-1
100
AcDbLine
10
-274.000001151
20
-182.772460938
11
-274.000001151
21
-184.772460938
0
LINE
5
A5
100
AcDbEntity
8
engraving
6
ByLayer
62
256
370
-1
100
AcDbLine
10
-276.000001151
20
-182.772460938
11
-276.000001151
21
-184.772460938
0
LINE
5
A6
100
AcDbEntity
8
engraving
6
ByLayer
62
256
370
-1
100
AcDbLine
10
-268.000001151
20
-182.772460938
11
-268.000001151
21
-184.772460938
0
LINE
5
A7
100
AcDbEntity
8
engraving
6
ByLayer
62
256
370
-1
100
AcDbLine
10
-266.000001151
20
-182.772460938
11
-266.000001151
21
-184.772460938
0
LINE
5
A8
100
AcDbEntity
8
engraving
6
ByLayer
62
256
370
-1
100
AcDbLine
10
-264.000001151
20
-182.772460938
11
-264.000001151
21
-184.772460938
0
TEXT
5
A9
100
AcDbEntity
8
engraving
6
ByLayer
62
256
370
-1
100
AcDbText
10
-276.000001151
20
-180.772460938
30
0
40
3
1
6
50
0
41
1
51
0
7
opengosttypea-regular
71
0
72
1
11
-276.000001151
21
-180.772460938
31
0
210
0
220
0
230
1
100
AcDbText
73
2
0
TEXT
5
AA
100
AcDbEntity
8
engraving
6
ByLayer
62
256
370
-1
100
AcDbText
10
-270.000001151
20
-180.772460938
30
0
40
3
1
0
50
0
41
1
51
0
7
opengosttypea-regular
71
0
72
1
11
-270.000001151
21
-180.772460938
31
0
210
0
220
0
230
1
100
AcDbText
73
2
0
TEXT
5
AB
100
AcDbEntity
8
engraving
6
ByLayer
62
256
370
-1
100
AcDbText
10
-268.000001151
20
-180.772460938
30
0
40
3
1
2
50
0
41
1
51
0
7
opengosttypea-regular
71
0
72
1
11
-268.000001151
21
-180.772460938
31
0
210
0
220
0
230
1
100
AcDbText
73
2
0
TEXT
5
AC
100
AcDbEntity
8
engraving
6
ByLayer
62
256
370
-1
100
AcDbText
10
-272.000001151
20
-180.772460938
30
0
40
3
1
2
50
0
41
1
51
0
7
opengosttypea-regular
71
0
72
1
11
-272.000001151
21
-180.772460938
31
0
210
0
220
0
230
1
100
AcDbText
73
2
0
TEXT
5
AD
100
AcDbEntity
8
engraving
6
ByLayer
62
256
370
-1
100
AcDbText
10
-274.000001151
20
-180.772460938
30
0
40
3
1
4
50
0
41
1
51
0
7
opengosttypea-regular
71
0
72
1
11
-274.000001151
21
-180.772460938
31
0
210
0
220
0
230
1
100
AcDbText
73
2
0
TEXT
5
AE
100
AcDbEntity
8
engraving
6
ByLayer
62
256
370
-1
100
AcDbText
10
-266.000001151
20
-180.772460938
30
0
40
3
1
4
50
0
41
1
51
0
7
opengosttypea-regular
71
0
72
1
11
-266.000001151
21
-180.772460938
31
0
210
0
220
0
230
1
100
AcDbText
73
2
0
TEXT
5
AF
100
AcDbEntity
8
engraving
6
ByLayer
62
256
370
-1
100
AcDbText
10
-264.000001151
20
-180.772460938
30
0
40
3
1
6
50
0
41
1
51
0
7
opengosttypea-regular
71
0
72
1
11
-264.000001151
21
-180.772460938
31
0
210
0
220
0
230
1
100
AcDbText
73
2
0
LINE
5
B0
100
AcDbEntity
8
FirstCut
6
ByLayer
62
256
370
-1
100
AcDbLine
10
-276
20
-191.597460362
11
-264
21
-191.597460362
0
LINE
5
B1
100
AcDbEntity
8
FirstCut
6
ByLayer
62
256
370
-1
100
AcDbLine
10
-159.500002697
20
-185.947460362
11
-147.5
21
-185.947461514
0
LINE
5
B2
100
AcDbEntity
8
FirstCut
6
ByLayer
62
256
370
-1
100
AcDbLine
10
-147.5
20
-191.597460362
11
-159.500002697
21
-191.597460362
0
LINE
5
B3
100
AcDbEntity
8
FirstCut
6
ByLayer
62
256
370
-1
100
AcDbLine
10
-56
20
-185.947460362
11
-44
21
-185.947461514
0
ENDBLK
5
4C
330
4A
100
AcDbEntity
8
0
100
AcDbBlockEnd
0
ENDSEC
0
SECTION
2
ENTITIES
0
LINE
5
B4
100
AcDbEntity
8
0
6
ByLayer
62
256
370
-1
100
AcDbLine
10
384.449957457
20
201.165676119
11
384.449957457
21
7.938137056
0
ARC
5
B5
100
AcDbEntity
8
0
6
ByLayer
62
256
370
-1
100
AcDbCircle
10
381.449957457
20
7.938137056
40
3
100
AcDbArc
50
270
51
360
0
LINE
5
B6
100
AcDbEntity
8
0
6
ByLayer
62
256
370
-1
100
AcDbLine
10
64.4499574573
20
7.938137056
11
64.4499574573
21
201.165676119
0
ARC
5
B7
100
AcDbEntity
8
0
6
ByLayer
62
256
370
-1
100
AcDbCircle
10
67.4499574573
20
7.938137056
40
3
100
AcDbArc
50
180
51
270
0
LINE
5
B8
100
AcDbEntity
8
0
6
ByLayer
62
256
370
-1
100
AcDbLine
10
381.449957457
20
4.938137056
11
304.688297506
21
4.938137056
0
LINE
5
B9
100
AcDbEntity
8
0
6
ByLayer
62
256
370
-1
100
AcDbLine
10
267.386030463
20
4.938137056
11
67.4499574573
21
4.938137056
0
LINE
5
BA
100
AcDbEntity
8
0
6
ByLayer
62
256
370
-1
100
AcDbLine
10
304.688297505
20
4.938137056
11
267.386030463
21
4.938137056
0
CIRCLE
5
BB
100
AcDbEntity
8
FirstCut
6
ByLayer
62
256
370
-1
100
AcDbCircle
10
170.449957457
20
347.393215181
40
13.1619199992
0
ELLIPSE
5
BC
100
AcDbEntity
8
0
6
ByLayer
62
256
370
-1
100
AcDbEllipse
10
224.449957457
20
213.086707811
30
0
11
0
21
-184.243562967
31
0
40
0.868415685323
41
1.5707963268
42
4.71238898039
0
LINE
5
BD
100
AcDbEntity
8
0
6
ByLayer
62
256
370
-1
100
AcDbLine
10
384.449957457
20
213.086707811
11
384.449957457
21
201.165676119
0
LINE
5
BE
100
AcDbEntity
8
0
6
ByLayer
62
256
370
-1
100
AcDbLine
10
64.4499574573
20
213.086707811
11
64.4499574573
21
201.165676119
0
LINE
5
BF
100
AcDbEntity
8
engraving
6
ByLayer
62
256
370
-1
100
AcDbLine
10
243.449957457
20
343.393215181
11
243.449957457
21
341.393215181
0
LINE
5
C0
100
AcDbEntity
8
engraving
6
ByLayer
62
256
370
-1
100
AcDbLine
10
245.449957457
20
343.393215181
11
245.449957457
21
341.393215181
0
LINE
5
C1
100
AcDbEntity
8
engraving
6
ByLayer
62
256
370
-1
100
AcDbLine
10
247.449957457
20
343.393215181
11
247.449957457
21
341.393215181
0
LINE
5
C2
100
AcDbEntity
8
engraving
6
ByLayer
62
256
370
-1
100
AcDbLine
10
249.449957457
20
343.393215181
11
249.449957457
21
341.393215181
0
LINE
5
C3
100
AcDbEntity
8
engraving
6
ByLayer
62
256
370
-1
100
AcDbLine
10
241.449957457
20
343.393215181
11
241.449957457
21
341.393215181
0
LINE
5
C4
100
AcDbEntity
8
engraving
6
ByLayer
62
256
370
-1
100
AcDbLine
10
239.449957457
20
343.393215181
11
239.449957457
21
341.393215181
0
LINE
5
C5
100
AcDbEntity
8
engraving
6
ByLayer
62
256
370
-1
100
AcDbLine
10
237.449957457
20
343.393215181
11
237.449957457
21
341.393215181
0
TEXT
5
C6
100
AcDbEntity
8
engraving
6
ByLayer
62
256
370
-1
100
AcDbText
10
243.449957457
20
339.393215181
30
0
40
3
1
0
50
360
41
1
51
0
7
opengosttypea-regular
71
0
72
1
11
243.449957457
21
339.393215181
31
0
210
0
220
0
230
1
100
AcDbText
73
2
0
TEXT
5
C7
100
AcDbEntity
8
engraving
6
ByLayer
62
256
370
-1
100
AcDbText
10
241.449957457
20
339.393215181
30
0
40
3
1
2
50
360
41
1
51
0
7
opengosttypea-regular
71
0
72
1
11
241.449957457
21
339.393215181
31
0
210
0
220
0
230
1
100
AcDbText
73
2
0
TEXT
5
C8
100
AcDbEntity
8
engraving
6
ByLayer
62
256
370
-1
100
AcDbText
10
245.449957457
20
339.393215181
30
0
40
3
1
2
50
360
41
1
51
0
7
opengosttypea-regular
71
0
72
1
11
245.449957457
21
339.393215181
31
0
210
0
220
0
230
1
100
AcDbText
73
2
0
TEXT
5
C9
100
AcDbEntity
8
engraving
6
ByLayer
62
256
370
-1
100
AcDbText
10
247.449957457
20
339.393215181
30
0
40
3
1
4
50
360
41
1
51
0
7
opengosttypea-regular
71
0
72
1
11
247.449957457
21
339.393215181
31
0
210
0
220
0
230
1
100
AcDbText
73
2
0
TEXT
5
CA
100
AcDbEntity
8
engraving
6
ByLayer
62
256
370
-1
100
AcDbText
10
239.449957457
20
339.393215181
30
0
40
3
1
4
50
360
41
1
51
0
7
opengosttypea-regular
71
0
72
1
11
239.449957457
21
339.393215181
31
0
210
0
220
0
230
1
100
AcDbText
73
2
0
TEXT
5
CB
100
AcDbEntity
8
engraving
6
ByLayer
62
256
370
-1
100
AcDbText
10
237.449957457
20
339.393215181
30
0
40
3
1
6
50
360
41
1
51
0
7
opengosttypea-regular
71
0
72
1
11
237.449957457
21
339.393215181
31
0
210
0
220
0
230
1
100
AcDbText
73
2
0
TEXT
5
CC
100
AcDbEntity
8
engraving
6
ByLayer
62
256
370
-1
100
AcDbText
10
249.449957457
20
339.393215181
30
0
40
3
1
6
50
360
41
1
51
0
7
opengosttypea-regular
71
0
72
1
11
249.449957457
21
339.393215181
31
0
210
0
220
0
230
1
100
AcDbText
73
2
0
LINE
5
CD
100
AcDbEntity
8
engraving
6
ByLayer
62
256
370
-1
100
AcDbLine
10
205.449956503
20
343.393215181
11
205.449956503
21
341.393215181
0
LINE
5
CE
100
AcDbEntity
8
engraving
6
ByLayer
62
256
370
-1
100
AcDbLine
10
207.449956503
20
343.393215181
11
207.449956503
21
341.393215181
0
LINE
5
CF
100
AcDbEntity
8
engraving
6
ByLayer
62
256
370
-1
100
AcDbLine
10
209.449956503
20
343.393215181
11
209.449956503
21
341.393215181
0
LINE
5
D0
100
AcDbEntity
8
engraving
6
ByLayer
62
256
370
-1
100
AcDbLine
10
211.449956503
20
343.393215181
11
211.449956503
21
341.393215181
0
LINE
5
D1
100
AcDbEntity
8
engraving
6
ByLayer
62
256
370
-1
100
AcDbLine
10
203.449956503
20
343.393215181
11
203.449956503
21
341.393215181
0
LINE
5
D2
100
AcDbEntity
8
engraving
6
ByLayer
62
256
370
-1
100
AcDbLine
10
201.449956503
20
343.393215181
11
201.449956503
21
341.393215181
0
LINE
5
D3
100
AcDbEntity
8
engraving
6
ByLayer
62
256
370
-1
100
AcDbLine
10
199.449956503
20
343.393215181
11
199.449956503
21
341.393215181
0
TEXT
5
D4
100
AcDbEntity
8
engraving
6
ByLayer
62
256
370
-1
100
AcDbText
10
205.449956503
20
339.393215181
30
0
40
3
1
0
50
360
41
1
51
0
7
opengosttypea-regular
71
0
72
1
11
205.449956503
21
339.393215181
31
0
210
0
220
0
230
1
100
AcDbText
73
2
0
TEXT
5
D5
100
AcDbEntity
8
engraving
6
ByLayer
62
256
370
-1
100
AcDbText
10
203.449956503
20
339.393215181
30
0
40
3
1
2
50
360
41
1
51
0
7
opengosttypea-regular
71
0
72
1
11
203.449956503
21
339.393215181
31
0
210
0
220
0
230
1
100
AcDbText
73
2
0
TEXT
5
D6
100
AcDbEntity
8
engraving
6
ByLayer
62
256
370
-1
100
AcDbText
10
207.449956503
20
339.393215181
30
0
40
3
1
2
50
360
41
1
51
0
7
opengosttypea-regular
71
0
72
1
11
207.449956503
21
339.393215181
31
0
210
0
220
0
230
1
100
AcDbText
73
2
0
TEXT
5
D7
100
AcDbEntity
8
engraving
6
ByLayer
62
256
370
-1
100
AcDbText
10
209.449956503
20
339.393215181
30
0
40
3
1
4
50
360
41
1
51
0
7
opengosttypea-regular
71
0
72
1
11
209.449956503
21
339.393215181
31
0
210
0
220
0
230
1
100
AcDbText
73
2
0
TEXT
5
D8
100
AcDbEntity
8
engraving
6
ByLayer
62
256
370
-1
100
AcDbText
10
201.449956503
20
339.393215181
30
0
40
3
1
4
50
360
41
1
51
0
7
opengosttypea-regular
71
0
72
1
11
201.449956503
21
339.393215181
31
0
210
0
220
0
230
1
100
AcDbText
73
2
0
TEXT
5
D9
100
AcDbEntity
8
engraving
6
ByLayer
62
256
370
-1
100
AcDbText
10
199.449956503
20
339.393215181
30
0
40
3
1
6
50
360
41
1
51
0
7
opengosttypea-regular
71
0
72
1
11
199.449956503
21
339.393215181
31
0
210
0
220
0
230
1
100
AcDbText
73
2
0
TEXT
5
DA
100
AcDbEntity
8
engraving
6
ByLayer
62
256
370
-1
100
AcDbText
10
211.449956503
20
339.393215181
30
0
40
3
1
6
50
360
41
1
51
0
7
opengosttypea-regular
71
0
72
1
11
211.449956503
21
339.393215181
31
0
210
0
220
0
230
1
100
AcDbText
73
2
0
ARC
5
DB
100
AcDbEntity
8
FirstCut
6
ByLayer
62
256
370
-1
100
AcDbCircle
10
199.449957457
20
347.393215181
40
2.825
100
AcDbArc
50
90
51
270
0
ARC
5
DC
100
AcDbEntity
8
FirstCut
6
ByLayer
62
256
370
-1
100
AcDbCircle
10
211.44995555
20
347.393215181
40
2.825
100
AcDbArc
50
270
51
90
0
ARC
5
DD
100
AcDbEntity
8
FirstCut
6
ByLayer
62
256
370
-1
100
AcDbCircle
10
237.449957457
20
347.393215181
40
2.825
100
AcDbArc
50
90
51
270
0
ARC
5
DE
100
AcDbEntity
8
FirstCut
6
ByLayer
62
256
370
-1
100
AcDbCircle
10
249.449957457
20
347.393215181
40
2.825
100
AcDbArc
50
270
51
90
0
LINE
5
DF
100
AcDbEntity
8
FirstCut
6
ByLayer
62
256
370
-1
100
AcDbLine
10
249.449957457
20
350.218215181
11
237.449957457
21
350.218215181
0
LINE
5
E0
100
AcDbEntity
8
FirstCut
6
ByLayer
62
256
370
-1
100
AcDbLine
10
237.449957457
20
344.568215181
11
249.449957457
21
344.568215181
0
ARC
5
E1
100
AcDbEntity
8
FirstCut
6
ByLayer
62
256
370
-1
100
AcDbCircle
10
340.449957457
20
12.393215757
40
2.825
100
AcDbArc
50
270
51
90
0
ARC
5
E2
100
AcDbEntity
8
FirstCut
6
ByLayer
62
256
370
-1
100
AcDbCircle
10
328.449957457
20
12.393215757
40
2.825
100
AcDbArc
50
90
51
270
0
ARC
5
E3
100
AcDbEntity
8
FirstCut
6
ByLayer
62
256
370
-1
100
AcDbCircle
10
223.949960154
20
12.393215757
40
2.825
100
AcDbArc
50
270
51
90
0
ARC
5
E4
100
AcDbEntity
8
FirstCut
6
ByLayer
62
256
370
-1
100
AcDbCircle
10
211.949957457
20
12.393215181
40
2.82499942445
100
AcDbArc
50
90
51
270
0
ARC
5
E5
100
AcDbEntity
8
FirstCut
6
ByLayer
62
256
370
-1
100
AcDbCircle
10
120.449957457
20
12.393215181
40
2.82500057555
100
AcDbArc
50
270
51
90
0
ARC
5
E6
100
AcDbEntity
8
FirstCut
6
ByLayer
62
256
370
-1
100
AcDbCircle
10
108.449957457
20
12.393215181
40
2.82499942445
100
AcDbArc
50
90
51
270
0
LINE
5
E7
100
AcDbEntity
8
FirstCut
6
ByLayer
62
256
370
-1
100
AcDbLine
10
340.449957457
20
15.218215757
11
328.449957457
21
15.218215757
0
LINE
5
E8
100
AcDbEntity
8
FirstCut
6
ByLayer
62
256
370
-1
100
AcDbLine
10
120.449957457
20
9.568214605
11
108.449957457
21
9.568215757
0
CIRCLE
5
E9
100
AcDbEntity
8
FirstCut
6
ByLayer
62
256
370
-1
100
AcDbCircle
10
243.449957457
20
237.393215181
40
2.825
0
CIRCLE
5
EA
100
AcDbEntity
8
FirstCut
6
ByLayer
62
256
370
-1
100
AcDbCircle
10
205.449957457
20
237.393215181
40
2.825
0
LINE
5
EB
100
AcDbEntity
8
FirstCut
6
ByLayer
62
256
370
-1
100
AcDbLine
10
211.44995555
20
350.218215181
11
199.449957457
21
350.218215181
0
LINE
5
EC
100
AcDbEntity
8
FirstCut
6
ByLayer
62
256
370
-1
100
AcDbLine
10
199.449957457
20
344.568215181
11
211.44995555
21
344.568215181
0
LINE
5
ED
100
AcDbEntity
8
engraving
6
ByLayer
62
256
370
-1
100
AcDbLine
10
114.449957347
20
18.393215181
11
114.449957347
21
16.393215181
0
LINE
5
EE
100
AcDbEntity
8
engraving
6
ByLayer
62
256
370
-1
100
AcDbLine
10
116.449957347
20
18.393215181
11
116.449957347
21
16.393215181
0
LINE
5
EF
100
AcDbEntity
8
engraving
6
ByLayer
62
256
370
-1
100
AcDbLine
10
118.449957347
20
18.393215181
11
118.449957347
21
16.393215181
0
LINE
5
F0
100
AcDbEntity
8
engraving
6
ByLayer
62
256
370
-1
100
AcDbLine
10
120.449957347
20
18.393215181
11
120.449957347
21
16.393215181
0
LINE
5
F1
100
AcDbEntity
8
engraving
6
ByLayer
62
256
370
-1
100
AcDbLine
10
112.449957347
20
18.393215181
11
112.449957347
21
16.393215181
0
LINE
5
F2
100
AcDbEntity
8
engraving
6
ByLayer
62
256
370
-1
100
AcDbLine
10
110.449957347
20
18.393215181
11
110.449957347
21
16.393215181
0
LINE
5
F3
100
AcDbEntity
8
engraving
6
ByLayer
62
256
370
-1
100
AcDbLine
10
108.449957347
20
18.393215181
11
108.449957347
21
16.393215181
0
TEXT
5
F4
100
AcDbEntity
8
engraving
6
ByLayer
62
256
370
-1
100
AcDbText
10
120.449957347
20
20.393215181
30
0
40
3
1
6
50
360
41
1
51
0
7
opengosttypea-regular
71
0
72
1
11
120.449957347
21
20.393215181
31
0
210
0
220
0
230
1
100
AcDbText
73
2
0
TEXT
5
F5
100
AcDbEntity
8
engraving
6
ByLayer
62
256
370
-1
100
AcDbText
10
114.449957347
20
20.393215181
30
0
40
3
1
0
50
360
41
1
51
0
7
opengosttypea-regular
71
0
72
1
11
114.449957347
21
20.393215181
31
0
210
0
220
0
230
1
100
AcDbText
73
2
0
TEXT
5
F6
100
AcDbEntity
8
engraving
6
ByLayer
62
256
370
-1
100
AcDbText
10
112.449957347
20
20.393215181
30
0
40
3
1
2
50
360
41
1
51
0
7
opengosttypea-regular
71
0
72
1
11
112.449957347
21
20.393215181
31
0
210
0
220
0
230
1
100
AcDbText
73
2
0
TEXT
5
F7
100
AcDbEntity
8
engraving
6
ByLayer
62
256
370
-1
100
AcDbText
10
116.449957347
20
20.393215181
30
0
40
3
1
2
50
360
41
1
51
0
7
opengosttypea-regular
71
0
72
1
11
116.449957347
21
20.393215181
31
0
210
0
220
0
230
1
100
AcDbText
73
2
0
TEXT
5
F8
100
AcDbEntity
8
engraving
6
ByLayer
62
256
370
-1
100
AcDbText
10
118.449957347
20
20.393215181
30
0
40
3
1
4
50
360
41
1
51
0
7
opengosttypea-regular
71
0
72
1
11
118.449957347
21
20.393215181
31
0
210
0
220
0
230
1
100
AcDbText
73
2
0
TEXT
5
F9
100
AcDbEntity
8
engraving
6
ByLayer
62
256
370
-1
100
AcDbText
10
110.449957347
20
20.393215181
30
0
40
3
1
4
50
360
41
1
51
0
7
opengosttypea-regular
71
0
72
1
11
110.449957347
21
20.393215181
31
0
210
0
220
0
230
1
100
AcDbText
73
2
0
TEXT
5
FA
100
AcDbEntity
8
engraving
6
ByLayer
62
256
370
-1
100
AcDbText
10
108.449957347
20
20.393215181
30
0
40
3
1
6
50
360
41
1
51
0
7
opengosttypea-regular
71
0
72
1
11
108.449957347
21
20.393215181
31
0
210
0
220
0
230
1
100
AcDbText
73
2
0
LINE
5
FB
100
AcDbEntity
8
engraving
6
ByLayer
62
256
370
-1
100
AcDbLine
10
217.949957259
20
18.393215181
11
217.949957259
21
16.393215181
0
LINE
5
FC
100
AcDbEntity
8
engraving
6
ByLayer
62
256
370
-1
100
AcDbLine
10
219.949957259
20
18.393215181
11
219.949957259
21
16.393215181
0
LINE
5
FD
100
AcDbEntity
8
engraving
6
ByLayer
62
256
370
-1
100
AcDbLine
10
221.949957259
20
18.393215181
11
221.949957259
21
16.393215181
0
LINE
5
FE
100
AcDbEntity
8
engraving
6
ByLayer
62
256
370
-1
100
AcDbLine
10
223.949957259
20
18.393215181
11
223.949957259
21
16.393215181
0
LINE
5
FF
100
AcDbEntity
8
engraving
6
ByLayer
62
256
370
-1
100
AcDbLine
10
215.949957259
20
18.393215181
11
215.949957259
21
16.393215181
0
LINE
5
100
100
AcDbEntity
8
engraving
6
ByLayer
62
256
370
-1
100
AcDbLine
10
213.949957259
20
18.393215181
11
213.949957259
21
16.393215181
0
LINE
5
101
100
AcDbEntity
8
engraving
6
ByLayer
62
256
370
-1
100
AcDbLine
10
211.949957259
20
18.393215181
11
211.949957259
21
16.393215181
0
TEXT
5
102
100
AcDbEntity
8
engraving
6
ByLayer
62
256
370
-1
100
AcDbText
10
223.949957259
20
20.393215181
30
0
40
3
1
6
50
360
41
1
51
0
7
opengosttypea-regular
71
0
72
1
11
223.949957259
21
20.393215181
31
0
210
0
220
0
230
1
100
AcDbText
73
2
0
TEXT
5
103
100
AcDbEntity
8
engraving
6
ByLayer
62
256
370
-1
100
AcDbText
10
217.949957259
20
20.393215181
30
0
40
3
1
0
50
360
41
1
51
0
7
opengosttypea-regular
71
0
72
1
11
217.949957259
21
20.393215181
31
0
210
0
220
0
230
1
100
AcDbText
73
2
0
TEXT
5
104
100
AcDbEntity
8
engraving
6
ByLayer
62
256
370
-1
100
AcDbText
10
215.949957259
20
20.393215181
30
0
40
3
1
2
50
360
41
1
51
0
7
opengosttypea-regular
71
0
72
1
11
215.949957259
21
20.393215181
31
0
210
0
220
0
230
1
100
AcDbText
73
2
0
TEXT
5
105
100
AcDbEntity
8
engraving
6
ByLayer
62
256
370
-1
100
AcDbText
10
219.949957259
20
20.393215181
30
0
40
3
1
2
50
360
41
1
51
0
7
opengosttypea-regular
71
0
72
1
11
219.949957259
21
20.393215181
31
0
210
0
220
0
230
1
100
AcDbText
73
2
0
TEXT
5
106
100
AcDbEntity
8
engraving
6
ByLayer
62
256
370
-1
100
AcDbText
10
221.949957259
20
20.393215181
30
0
40
3
1
4
50
360
41
1
51
0
7
opengosttypea-regular
71
0
72
1
11
221.949957259
21
20.393215181
31
0
210
0
220
0
230
1
100
AcDbText
73
2
0
TEXT
5
107
100
AcDbEntity
8
engraving
6
ByLayer
62
256
370
-1
100
AcDbText
10
213.949957259
20
20.393215181
30
0
40
3
1
4
50
360
41
1
51
0
7
opengosttypea-regular
71
0
72
1
11
213.949957259
21
20.393215181
31
0
210
0
220
0
230
1
100
AcDbText
73
2
0
TEXT
5
108
100
AcDbEntity
8
engraving
6
ByLayer
62
256
370
-1
100
AcDbText
10
211.949957259
20
20.393215181
30
0
40
3
1
6
50
360
41
1
51
0
7
opengosttypea-regular
71
0
72
1
11
211.949957259
21
20.393215181
31
0
210
0
220
0
230
1
100
AcDbText
73
2
0
LINE
5
109
100
AcDbEntity
8
engraving
6
ByLayer
62
256
370
-1
100
AcDbLine
10
334.449958608
20
18.393215181
11
334.449958608
21
16.393215181
0
LINE
5
10A
100
AcDbEntity
8
engraving
6
ByLayer
62
256
370
-1
100
AcDbLine
10
336.449958608
20
18.393215181
11
336.449958608
21
16.393215181
0
LINE
5
10B
100
AcDbEntity
8
engraving
6
ByLayer
62
256
370
-1
100
AcDbLine
10
338.449958608
20
18.393215181
11
338.449958608
21
16.393215181
0
LINE
5
10C
100
AcDbEntity
8
engraving
6
ByLayer
62
256
370
-1
100
AcDbLine
10
340.449958608
20
18.393215181
11
340.449958608
21
16.393215181
0
LINE
5
10D
100
AcDbEntity
8
engraving
6
ByLayer
62
256
370
-1
100
AcDbLine
10
332.449958608
20
18.393215181
11
332.449958608
21
16.393215181
0
LINE
5
10E
100
AcDbEntity
8
engraving
6
ByLayer
62
256
370
-1
100
AcDbLine
10
330.449958608
20
18.393215181
11
330.449958608
21
16.393215181
0
LINE
5
10F
100
AcDbEntity
8
engraving
6
ByLayer
62
256
370
-1
100
AcDbLine
10
328.449958608
20
18.393215181
11
328.449958608
21
16.393215181
0
TEXT
5
110
100
AcDbEntity
8
engraving
6
ByLayer
62
256
370
-1
100
AcDbText
10
340.449958608
20
20.393215181
30
0
40
3
1
6
50
360
41
1
51
0
7
opengosttypea-regular
71
0
72
1
11
340.449958608
21
20.393215181
31
0
210
0
220
0
230
1
100
AcDbText
73
2
0
TEXT
5
111
100
AcDbEntity
8
engraving
6
ByLayer
62
256
370
-1
100
AcDbText
10
334.449958608
20
20.393215181
30
0
40
3
1
0
50
360
41
1
51
0
7
opengosttypea-regular
71
0
72
1
11
334.449958608
21
20.393215181
31
0
210
0
220
0
230
1
100
AcDbText
73
2
0
TEXT
5
112
100
AcDbEntity
8
engraving
6
ByLayer
62
256
370
-1
100
AcDbText
10
332.449958608
20
20.393215181
30
0
40
3
1
2
50
360
41
1
51
0
7
opengosttypea-regular
71
0
72
1
11
332.449958608
21
20.393215181
31
0
210
0
220
0
230
1
100
AcDbText
73
2
0
TEXT
5
113
100
AcDbEntity
8
engraving
6
ByLayer
62
256
370
-1
100
AcDbText
10
336.449958608
20
20.393215181
30
0
40
3
1
2
50
360
41
1
51
0
7
opengosttypea-regular
71
0
72
1
11
336.449958608
21
20.393215181
31
0
210
0
220
0
230
1
100
AcDbText
73
2
0
TEXT
5
114
100
AcDbEntity
8
engraving
6
ByLayer
62
256
370
-1
100
AcDbText
10
338.449958608
20
20.393215181
30
0
40
3
1
4
50
360
41
1
51
0
7
opengosttypea-regular
71
0
72
1
11
338.449958608
21
20.393215181
31
0
210
0
220
0
230
1
100
AcDbText
73
2
0
TEXT
5
115
100
AcDbEntity
8
engraving
6
ByLayer
62
256
370
-1
100
AcDbText
10
330.449958608
20
20.393215181
30
0
40
3
1
4
50
360
41
1
51
0
7
opengosttypea-regular
71
0
72
1
11
330.449958608
21
20.393215181
31
0
210
0
220
0
230
1
100
AcDbText
73
2
0
TEXT
5
116
100
AcDbEntity
8
engraving
6
ByLayer
62
256
370
-1
100
AcDbText
10
328.449958608
20
20.393215181
30
0
40
3
1
6
50
360
41
1
51
0
7
opengosttypea-regular
71
0
72
1
11
328.449958608
21
20.393215181
31
0
210
0
220
0
230
1
100
AcDbText
73
2
0
LINE
5
117
100
AcDbEntity
8
FirstCut
6
ByLayer
62
256
370
-1
100
AcDbLine
10
340.449957457
20
9.568215757
11
328.449957457
21
9.568215757
0
LINE
5
118
100
AcDbEntity
8
FirstCut
6
ByLayer
62
256
370
-1
100
AcDbLine
10
223.949960154
20
15.218215757
11
211.949957457
21
15.218214605
0
LINE
5
119
100
AcDbEntity
8
FirstCut
6
ByLayer
62
256
370
-1
100
AcDbLine
10
211.949957457
20
9.568215757
11
223.949960154
21
9.568215757
0
LINE
5
11A
100
AcDbEntity
8
FirstCut
6
ByLayer
62
256
370
-1
100
AcDbLine
10
120.449957457
20
15.218215757
11
108.449957457
21
15.218214605
0
LINE
5
11B
100
AcDbEntity
8
guides
6
ByLayer
62
256
370
-1
100
AcDbLine
10
224.449957457
20
237.393215181
11
224.449957457
21
238.393215181
0
LINE
5
11C
100
AcDbEntity
8
guides
6
ByLayer
62
256
370
-1
100
AcDbLine
10
174.449957457
20
237.393215181
11
174.449957457
21
238.393215181
0
LINE
5
11D
100
AcDbEntity
8
guides
6
ByLayer
62
256
370
-1
100
AcDbLine
10
328.449957457
20
12.393215757
11
329.449957457
21
12.393215757
0
LINE
5
11E
100
AcDbEntity
8
guides
6
ByLayer
62
256
370
-1
100
AcDbLine
10
328.449957457
20
122.393215757
11
329.449957457
21
122.393215757
0
LINE
5
11F
100
AcDbEntity
8
guides
6
ByLayer
62
256
370
-1
100
AcDbLine
10
211.44995555
20
347.393215181
11
212.44995555
21
347.393215181
0
LINE
5
120
100
AcDbEntity
8
guides
6
ByLayer
62
256
370
-1
100
AcDbLine
10
211.44995555
20
332.393215181
11
212.44995555
21
332.393215181
0
LINE
5
121
100
AcDbEntity
8
guides
6
ByLayer
62
256
370
-1
100
AcDbLine
10
211.44995555
20
307.393215181
11
212.44995555
21
307.393215181
0
LINE
5
122
100
AcDbEntity
8
guides
6
ByLayer
62
256
370
-1
100
AcDbLine
10
328.449957457
20
147.393215757
11
329.449957457
21
147.393215757
0
LINE
5
123
100
AcDbEntity
8
guides
6
ByLayer
62
256
370
-1
100
AcDbLine
10
199.449957457
20
237.393215181
11
199.449957457
21
238.393215181
0
ARC
5
124
100
AcDbEntity
8
0
6
ByLayer
62
256
370
-1
100
AcDbCircle
10
199.449957457
20
307.393215181
40
25
100
AcDbArc
50
0
51
180
0
ARC
5
125
100
AcDbEntity
8
0
6
ByLayer
62
256
370
-1
100
AcDbCircle
10
199.449957457
20
147.393215757
40
25
100
AcDbArc
50
180
51
0
0
LINE
5
126
100
AcDbEntity
8
0
6
ByLayer
62
256
370
-1
100
AcDbLine
10
174.449957457
20
307.393215181
11
174.449957457
21
147.393215757
0
LINE
5
127
100
AcDbEntity
8
0
6
ByLayer
62
256
370
-1
100
AcDbLine
10
224.449957457
20
147.393215757
11
224.449957457
21
307.393215181
0
ENDSEC
0
SECTION
2
OBJECTS
0
DICTIONARY
5
C
330
0
100
AcDbDictionary
281
1
3
ACAD_GROUP
350
D
0
DICTIONARY
5
D
330
C
100
AcDbDictionary
281
1
0
ENDSEC
0
EOF
