999
dxfrw 0.5.11
0
SECTION
2
HEADER
9
$ACADVER
1
AC1009
9
$DWGCODEPAGE
3
ANSI_1252
9
$INSBASE
10
0
20
0
30
0
9
$EXTMIN
10
248.828125
20
8.544921875
30
0
9
$EXTMAX
10
568.828125
20
401
30
0
9
$LIMMIN
10
0
20
0
9
$LIMMAX
10
420
20
297
9
$ORTHOMODE
70
0
9
$LTSCALE
40
1
9
$TEXTSTYLE
7
STANDARD
9
$CLAYER
8
0
9
$DIMASZ
40
2.5
9
$DIMLFAC
40
1
9
$DIMSCALE
40
1
9
$DIMEXO
40
0.625
9
$DIMEXE
40
1.25
9
$DIMTXT
40
2.5
9
$DIMTSZ
40
0
9
$DIMUNIT
70
2
9
$DIMSTYLE
2
STANDARD
9
$DIMGAP
40
0.625
9
$DIMTIH
70
0
9
$LUNITS
70
2
9
$LUPREC
70
4
9
$AUNITS
70
0
9
$AUPREC
70
2
9
$GRIDMODE
70
1
9
$SNAPSTYLE
70
0
9
$PLIMMIN
10
0
20
0
9
$PLIMMAX
10
210
20
297
0
ENDSEC
0
SECTION
2
CLASSES
0
ENDSEC
0
SECTION
2
TABLES
0
TABLE
2
VPORT
70
1
0
VPORT
2
*ACTIVE
70
0
10
0
20
0
11
1
21
1
12
385.437011723
22
215.454101565
13
0
23
0
14
10
24
10
15
10
25
10
16
0
26
0
36
1
17
0
27
0
37
0
40
478.515625005
41
1.97704081633
42
50
43
0
44
0
50
0
51
0
71
0
72
100
73
1
74
3
75
0
76
1
77
0
78
0
0
ENDTAB
0
TABLE
2
LTYPE
70
4
0
LTYPE
2
BYBLOCK
70
0
3

72
65
73
0
40
0
0
LTYPE
2
BYLAYER
70
0
3

72
65
73
0
40
0
0
LTYPE
2
CONTINUOUS
70
0
3
Solid line
72
65
73
0
40
0
0
LTYPE
2
DOT
70
0
3
Dot . . . . . . . . . . . . . . . . . . . . . .
72
65
73
2
40
6.35
49
0
49
-6.35
0
LTYPE
2
DOT2
70
0
3
Dot (.5x) .....................................
72
65
73
2
40
3.175
49
0
49
-3.175
0
LTYPE
2
DOTX2
70
0
3
Dot (2x) .  .  .  .  .  .  .  .  .  .  .  .  .
72
65
73
2
40
12.7
49
0
49
-12.7
0
LTYPE
2
DASHED
70
0
3
Dot . . . . . . . . . . . . . . . . . . . . . .
72
65
73
2
40
19.05
49
12.7
49
-6.35
0
LTYPE
2
DASHED2
70
0
3
Dashed (.5x) _ _ _ _ _ _ _ _ _ _ _ _ _ _ _ _ _
72
65
73
2
40
9.525
49
6.35
49
-3.175
0
LTYPE
2
DASHEDX2
70
0
3
Dashed (2x) ____  ____  ____  ____  ____  ___
72
65
73
2
40
38.1
49
25.4
49
-12.7
0
LTYPE
2
DASHDOT
70
0
3
Dash dot __ . __ . __ . __ . __ . __ . __ . __
72
65
73
4
40
25.4
49
12.7
49
-6.35
49
0
49
-6.35
0
LTYPE
2
DASHDOT2
70
0
3
Dash dot (.5x) _._._._._._._._._._._._._._._.
72
65
73
4
40
12.7
49
6.35
49
-3.175
49
0
49
-3.175
0
LTYPE
2
DASHDOTX2
70
0
3
Dash dot (2x) ____  .  ____  .  ____  .  ___
72
65
73
4
40
50.8
49
25.4
49
-12.7
49
0
49
-12.7
0
LTYPE
2
DIVIDE
70
0
3
Divide ____ . . ____ . . ____ . . ____ . . ____
72
65
73
6
40
31.75
49
12.7
49
-6.35
49
0
49
-6.35
49
0
49
-6.35
0
LTYPE
2
DIVIDE2
70
0
3
Divide (.5x) __..__..__..__..__..__..__..__.._
72
65
73
6
40
15.875
49
6.35
49
-3.175
49
0
49
-3.175
49
0
49
-3.175
0
LTYPE
2
DIVIDEX2
70
0
3
Divide (2x) ________  .  .  ________  .  .  _
72
65
73
6
40
63.5
49
25.4
49
-12.7
49
0
49
-12.7
49
0
49
-12.7
0
LTYPE
2
BORDER
70
0
3
Border __ __ . __ __ . __ __ . __ __ . __ __ .
72
65
73
6
40
44.45
49
12.7
49
-6.35
49
12.7
49
-6.35
49
0
49
-6.35
0
LTYPE
2
BORDER2
70
0
3
Border (.5x) __.__.__.__.__.__.__.__.__.__.__.
72
65
73
6
40
22.225
49
6.35
49
-3.175
49
6.35
49
-3.175
49
0
49
-3.175
0
LTYPE
2
BORDERX2
70
0
3
Border (2x) ____  ____  .  ____  ____  .  ___
72
65
73
6
40
88.9
49
25.4
49
-12.7
49
25.4
49
-12.7
49
0
49
-12.7
0
LTYPE
2
CENTER
70
0
3
Center ____ _ ____ _ ____ _ ____ _ ____ _ ____
72
65
73
4
40
50.8
49
31.75
49
-6.35
49
6.35
49
-6.35
0
LTYPE
2
CENTER2
70
0
3
Center (.5x) ___ _ ___ _ ___ _ ___ _ ___ _ ___
72
65
73
4
40
28.575
49
19.05
49
-3.175
49
3.175
49
-3.175
0
LTYPE
2
CENTERX2
70
0
3
Center (2x) ________  __  ________  __  _____
72
65
73
4
40
101.6
49
63.5
49
-12.7
49
12.7
49
-12.7
0
ENDTAB
0
TABLE
2
LAYER
70
1
0
LAYER
2
0
70
0
62
7
6
CONTINUOUS
0
LAYER
2
FIRSTCUT
70
0
62
1
6
CONTINUOUS
0
ENDTAB
0
TABLE
2
STYLE
70
3
0
STYLE
2
OPENGOSTTYPEA-REGULAR
70
0
40
0
41
1
50
0
71
0
42
1
3
OPENGOSTTYPEA-REGULAR
4

0
STYLE
2
STANDARD
70
0
40
0
41
1
50
0
71
0
42
1
3
TXT
4

0
ENDTAB
0
TABLE
2
VIEW
70
0
0
ENDTAB
0
TABLE
2
UCS
70
0
0
ENDTAB
0
TABLE
2
APPID
70
1
0
APPID
2
ACAD
70
0
0
ENDTAB
0
TABLE
2
DIMSTYLE
70
1
0
DIMSTYLE
2
STANDARD
70
0
3

4

5

6

7

40
1
41
2.5
42
0.625
43
0.38
44
1.25
45
0
46
0
47
0
48
0
140
2.5
141
0.09
142
0
143
25.4
144
1
145
0
146
1
147
0.625
71
0
72
0
73
0
74
1
75
0
76
0
77
0
78
0
170
0
171
2
172
0
173
0
174
0
175
0
176
0
177
0
178
0
0
ENDTAB
0
ENDSEC
0
SECTION
2
BLOCKS
0
BLOCK
8
0
2
$MODEL_SPACE
70
0
10
0
20
0
30
0
3
$MODEL_SPACE
1

0
ENDBLK
8
0
0
BLOCK
8
0
2
$PAPER_SPACE
70
0
10
0
20
0
30
0
3
$PAPER_SPACE
1

0
ENDBLK
8
0
0
BLOCK
8
0
2
DUET
70
0
10
0
20
0
3
DUET
1

0
LINE
5
31
8
0
6
BYLAYER
62
256
10
-57.5
20
-80
11
57.5
21
-80
0
LINE
5
32
8
0
6
BYLAYER
62
256
10
57.5
20
-80
11
57.5
21
80
0
LINE
5
33
8
0
6
BYLAYER
62
256
10
57.5
20
80
11
-57.5
21
80
0
LINE
5
34
8
0
6
BYLAYER
62
256
10
-57.5
20
80
11
-57.5
21
-80
0
TEXT
5
35
8
0
6
BYLAYER
62
256
10
2.07031250002
20
-71.69921875
30
0
40
5
1
Duet
50
0
41
1
51
0
7
OPENGOSTTYPEA-REGULAR
71
0
72
1
11
2.07031250002
21
-71.69921875
31
0
210
0
220
0
230
1
73
2
0
LINE
5
36
8
0
6
BYLAYER
62
256
10
-57.5
20
80
11
57.5
21
-80
0
LINE
5
37
8
0
6
BYLAYER
62
256
10
57.5
20
80
11
-57.5
21
-80
0
ENDBLK
8
0
0
BLOCK
8
0
2
DUETFULL
70
0
10
0
20
0
3
DUETFULL
1

0
ENDBLK
8
0
0
ENDSEC
0
SECTION
2
ENTITIES
0
CIRCLE
5
38
8
FIRSTCUT
6
BYLAYER
62
256
10
298.828125
20
16
40
3
0
CIRCLE
5
39
8
FIRSTCUT
6
BYLAYER
62
256
10
518.828125
20
16
40
3
0
CIRCLE
5
3A
8
FIRSTCUT
6
BYLAYER
62
256
10
389.828125
20
351
40
3
0
CIRCLE
5
3B
8
FIRSTCUT
6
BYLAYER
62
256
10
427.828125
20
351
40
3
0
CIRCLE
5
3C
8
FIRSTCUT
6
BYLAYER
62
256
10
415.328125
20
16
40
3
0
LINE
5
3D
8
0
6
BYLAYER
62
256
10
248.828125
20
204.772460938
11
248.828125
21
11.544921875
0
ARC
5
3E
8
0
6
BYLAYER
62
256
10
251.828125
20
11.544921875
40
3
50
180
51
270
0
LINE
5
3F
8
0
6
BYLAYER
62
256
10
568.828125
20
11.544921875
11
568.828125
21
204.772460938
0
ARC
5
40
8
0
6
BYLAYER
62
256
10
565.828125
20
11.544921875
40
3
50
270
51
0
0
LINE
5
41
8
0
6
BYLAYER
62
256
10
251.828125
20
8.544921875
11
328.589784951
21
8.544921875
0
LINE
5
42
8
0
6
BYLAYER
62
256
10
365.892051994
20
8.544921875
11
565.828125
21
8.544921875
0
POLYLINE
5
43
8
0
6
BYLAYER
62
256
66
1
10
0
20
0
30
0
70
0
0
VERTEX
5
44
8
0
6
BYLAYER
62
256
10
568.828125
20
204.772460937
30
0
0
VERTEX
5
45
8
0
6
BYLAYER
62
256
10
568.828125
20
204.772460938
30
0
0
VERTEX
5
46
8
0
6
BYLAYER
62
256
10
568.635397992
20
214.400889919
30
0
0
VERTEX
5
47
8
0
6
BYLAYER
62
256
10
568.057681267
20
224.006123171
30
0
0
VERTEX
5
48
8
0
6
BYLAYER
62
256
10
567.096366594
20
233.565020846
30
0
0
VERTEX
5
49
8
0
6
BYLAYER
62
256
10
565.753769864
20
243.054554722
30
0
0
VERTEX
5
4A
8
0
6
BYLAYER
62
256
10
564.033125511
20
252.451863681
30
0
0
VERTEX
5
4B
8
0
6
BYLAYER
62
256
10
561.938578717
20
261.734308783
30
0
0
VERTEX
5
4C
8
0
6
BYLAYER
62
256
10
559.475175429
20
270.879527804
30
0
0
VERTEX
5
4D
8
0
6
BYLAYER
62
256
10
556.648850201
20
279.865489111
30
0
0
VERTEX
5
4E
8
0
6
BYLAYER
62
256
10
553.466411899
20
288.670544735
30
0
0
VERTEX
5
4F
8
0
6
BYLAYER
62
256
10
549.935527295
20
297.273482527
30
0
0
VERTEX
5
50
8
0
6
BYLAYER
62
256
10
546.0647026
20
305.653577256
30
0
0
VERTEX
5
51
8
0
6
BYLAYER
62
256
10
541.863262968
20
313.79064054
30
0
0
VERTEX
5
52
8
0
6
BYLAYER
62
256
10
537.341330037
20
321.665069479
30
0
0
VERTEX
5
53
8
0
6
BYLAYER
62
256
10
532.509797538
20
329.257893887
30
0
0
VERTEX
5
54
8
0
6
BYLAYER
62
256
10
527.380305057
20
336.550821983
30
0
0
VERTEX
5
55
8
0
6
BYLAYER
62
256
10
521.96520999
20
343.526284464
30
0
0
VERTEX
5
56
8
0
6
BYLAYER
62
256
10
516.277557775
20
350.167476832
30
0
0
VERTEX
5
57
8
0
6
BYLAYER
62
256
10
510.331050466
20
356.458399871
30
0
0
VERTEX
5
58
8
0
6
BYLAYER
62
256
10
504.140013719
20
362.383898197
30
0
0
VERTEX
5
59
8
0
6
BYLAYER
62
256
10
497.719362283
20
367.929696765
30
0
0
VERTEX
5
5A
8
0
6
BYLAYER
62
256
10
491.084564071
20
373.082435261
30
0
0
VERTEX
5
5B
8
0
6
BYLAYER
62
256
10
486.428394823
20
376.376037105
30
0
0
SEQEND
5
5C
8
0
6
BYLAYER
62
256
0
POLYLINE
5
5D
8
0
6
BYLAYER
62
256
66
1
10
0
20
0
30
0
70
0
0
VERTEX
5
5E
8
0
6
BYLAYER
62
256
10
381.674631647
20
398.153554988
30
0
0
VERTEX
5
5F
8
0
6
BYLAYER
62
256
10
377.613673477
20
397.22954286
30
0
0
VERTEX
5
60
8
0
6
BYLAYER
62
256
10
369.951296216
20
395.119306566
30
0
0
VERTEX
5
61
8
0
6
BYLAYER
62
256
10
362.382576639
20
392.550508048
30
0
0
VERTEX
5
62
8
0
6
BYLAYER
62
256
10
354.925748457
20
389.529335767
30
0
0
VERTEX
5
63
8
0
6
BYLAYER
62
256
10
347.598775822
20
386.063067992
30
0
0
VERTEX
5
64
8
0
6
BYLAYER
62
256
10
340.419310051
20
382.160055266
30
0
0
VERTEX
5
65
8
0
6
BYLAYER
62
256
10
333.404647108
20
377.829700288
30
0
0
VERTEX
5
66
8
0
6
BYLAYER
62
256
10
326.571685929
20
373.082435261
30
0
0
VERTEX
5
67
8
0
6
BYLAYER
62
256
10
319.936887717
20
367.929696765
30
0
0
VERTEX
5
68
8
0
6
BYLAYER
62
256
10
313.516236281
20
362.383898197
30
0
0
VERTEX
5
69
8
0
6
BYLAYER
62
256
10
307.325199534
20
356.458399871
30
0
0
VERTEX
5
6A
8
0
6
BYLAYER
62
256
10
301.378692225
20
350.167476832
30
0
0
VERTEX
5
6B
8
0
6
BYLAYER
62
256
10
295.69104001
20
343.526284464
30
0
0
VERTEX
5
6C
8
0
6
BYLAYER
62
256
10
290.275944943
20
336.550821983
30
0
0
VERTEX
5
6D
8
0
6
BYLAYER
62
256
10
285.146452462
20
329.257893887
30
0
0
VERTEX
5
6E
8
0
6
BYLAYER
62
256
10
280.314919963
20
321.665069479
30
0
0
VERTEX
5
6F
8
0
6
BYLAYER
62
256
10
275.792987032
20
313.79064054
30
0
0
VERTEX
5
70
8
0
6
BYLAYER
62
256
10
271.5915474
20
305.653577256
30
0
0
VERTEX
5
71
8
0
6
BYLAYER
62
256
10
267.720722705
20
297.273482527
30
0
0
VERTEX
5
72
8
0
6
BYLAYER
62
256
10
264.189838101
20
288.670544735
30
0
0
VERTEX
5
73
8
0
6
BYLAYER
62
256
10
261.007399799
20
279.865489111
30
0
0
VERTEX
5
74
8
0
6
BYLAYER
62
256
10
258.181074571
20
270.879527804
30
0
0
VERTEX
5
75
8
0
6
BYLAYER
62
256
10
255.717671283
20
261.734308783
30
0
0
VERTEX
5
76
8
0
6
BYLAYER
62
256
10
253.623124489
20
252.451863681
30
0
0
VERTEX
5
77
8
0
6
BYLAYER
62
256
10
251.902480136
20
243.054554722
30
0
0
VERTEX
5
78
8
0
6
BYLAYER
62
256
10
250.559883406
20
233.565020846
30
0
0
VERTEX
5
79
8
0
6
BYLAYER
62
256
10
249.598568733
20
224.006123171
30
0
0
VERTEX
5
7A
8
0
6
BYLAYER
62
256
10
249.020852008
20
214.400889919
30
0
0
VERTEX
5
7B
8
0
6
BYLAYER
62
256
10
248.828125
20
204.772460939
30
0
0
SEQEND
5
7C
8
0
6
BYLAYER
62
256
0
CIRCLE
5
7D
8
FIRSTCUT
6
BYLAYER
62
256
10
427.828125
20
241
40
3
0
CIRCLE
5
7E
8
FIRSTCUT
6
BYLAYER
62
256
10
389.828125
20
241
40
3
0
POLYLINE
5
7F
8
0
6
BYLAYER
62
256
66
1
10
0
20
0
30
0
70
0
0
VERTEX
5
80
8
0
6
BYLAYER
62
256
10
381.674631647
20
398.153554988
30
0
0
SEQEND
5
81
8
0
6
BYLAYER
62
256
0
LINE
5
82
8
0
6
BYLAYER
62
256
10
328.589784952
20
8.544921875
11
365.892051994
21
8.544921875
0
CIRCLE
5
83
8
FIRSTCUT
6
BYLAYER
62
256
10
462.828125
20
351
40
13.1619199992
0
ENDSEC
0
EOF
