999
dxfrw 0.5.11
0
SECTION
2
HEADER
9
$ACADVER
1
AC1021
9
$HANDSEED
5
20000
9
$DWGCODEPAGE
3
ANSI_1252
9
$INSBASE
10
0
20
0
30
0
9
$EXTMIN
10
100
20
0
30
0
9
$EXTMAX
10
568.828125
20
472.048611114
30
0
9
$LIMMIN
10
0
20
0
9
$LIMMAX
10
420
20
297
9
$ORTHOMODE
70
0
9
$LTSCALE
40
1
9
$TEXTSTYLE
7
STANDARD
9
$CLAYER
8
RightSideOnly
9
$DIMASZ
40
2.5
9
$DIMLFAC
40
1
9
$DIMSCALE
40
1
9
$DIMEXO
40
0.625
9
$DIMEXE
40
1.25
9
$DIMTXT
40
2.5
9
$DIMTSZ
40
0
9
$DIMAUNIT
70
0
9
$DIMADEC
70
0
9
$DIMLUNIT
70
2
9
$DIMSTYLE
2
STANDARD
9
$DIMGAP
40
0.625
9
$DIMTIH
70
0
9
$LUNITS
70
2
9
$LUPREC
70
4
9
$AUNITS
70
0
9
$AUPREC
70
2
9
$SPLINESEGS
70
8
9
$GRIDMODE
70
1
9
$SNAPSTYLE
70
0
9
$PINSBASE
10
0
20
0
30
0
9
$PLIMMIN
10
0
20
0
9
$PLIMMAX
10
210
20
297
9
$INSUNITS
70
4
9
$PSVPSCALE
40
1
0
ENDSEC
0
SECTION
2
CLASSES
0
ENDSEC
0
SECTION
2
TABLES
0
TABLE
2
VPORT
5
8
330
0
100
AcDbSymbolTable
70
1
0
VPORT
5
31
330
2
100
AcDbSymbolTableRecord
100
AcDbViewportTableRecord
2
*ACTIVE
70
0
10
0
20
0
11
1
21
1
12
385.437011721
22
215.454101564
13
0
23
0
14
10
24
10
15
10
25
10
16
0
26
0
36
1
17
0
27
0
37
0
40
478.515625003
41
1.97704081633
42
50
43
0
44
0
50
0
51
0
71
0
72
100
73
1
74
3
75
0
76
1
77
0
78
0
281
0
65
1
110
0
120
0
130
0
111
1
121
0
131
0
112
0
122
1
132
0
79
0
146
0
348
10020
60
7
61
5
292
1
282
1
141
0
142
0
63
250
421
3358443
0
ENDTAB
0
TABLE
2
LTYPE
5
5
330
0
100
AcDbSymbolTable
70
4
0
LTYPE
5
14
330
5
100
AcDbSymbolTableRecord
100
AcDbLinetypeTableRecord
2
ByBlock
70
0
3

72
65
73
0
40
0
0
LTYPE
5
15
330
5
100
AcDbSymbolTableRecord
100
AcDbLinetypeTableRecord
2
ByLayer
70
0
3

72
65
73
0
40
0
0
LTYPE
5
16
330
5
100
AcDbSymbolTableRecord
100
AcDbLinetypeTableRecord
2
Continuous
70
0
3
Solid line
72
65
73
0
40
0
0
LTYPE
5
32
330
5
100
AcDbSymbolTableRecord
100
AcDbLinetypeTableRecord
2
DOT
70
0
3
Dot . . . . . . . . . . . . . . . . . . . . . .
72
65
73
2
40
6.35
49
0
74
0
49
-6.35
74
0
0
LTYPE
5
33
330
5
100
AcDbSymbolTableRecord
100
AcDbLinetypeTableRecord
2
DOT2
70
0
3
Dot (.5x) .....................................
72
65
73
2
40
3.175
49
0
74
0
49
-3.175
74
0
0
LTYPE
5
34
330
5
100
AcDbSymbolTableRecord
100
AcDbLinetypeTableRecord
2
DOTX2
70
0
3
Dot (2x) .  .  .  .  .  .  .  .  .  .  .  .  .
72
65
73
2
40
12.7
49
0
74
0
49
-12.7
74
0
0
LTYPE
5
35
330
5
100
AcDbSymbolTableRecord
100
AcDbLinetypeTableRecord
2
DASHED
70
0
3
Dot . . . . . . . . . . . . . . . . . . . . . .
72
65
73
2
40
19.05
49
12.7
74
0
49
-6.35
74
0
0
LTYPE
5
36
330
5
100
AcDbSymbolTableRecord
100
AcDbLinetypeTableRecord
2
DASHED2
70
0
3
Dashed (.5x) _ _ _ _ _ _ _ _ _ _ _ _ _ _ _ _ _
72
65
73
2
40
9.525
49
6.35
74
0
49
-3.175
74
0
0
LTYPE
5
37
330
5
100
AcDbSymbolTableRecord
100
AcDbLinetypeTableRecord
2
DASHEDX2
70
0
3
Dashed (2x) ____  ____  ____  ____  ____  ___
72
65
73
2
40
38.1
49
25.4
74
0
49
-12.7
74
0
0
LTYPE
5
38
330
5
100
AcDbSymbolTableRecord
100
AcDbLinetypeTableRecord
2
DASHDOT
70
0
3
Dash dot __ . __ . __ . __ . __ . __ . __ . __
72
65
73
4
40
25.4
49
12.7
74
0
49
-6.35
74
0
49
0
74
0
49
-6.35
74
0
0
LTYPE
5
39
330
5
100
AcDbSymbolTableRecord
100
AcDbLinetypeTableRecord
2
DASHDOT2
70
0
3
Dash dot (.5x) _._._._._._._._._._._._._._._.
72
65
73
4
40
12.7
49
6.35
74
0
49
-3.175
74
0
49
0
74
0
49
-3.175
74
0
0
LTYPE
5
3A
330
5
100
AcDbSymbolTableRecord
100
AcDbLinetypeTableRecord
2
DASHDOTX2
70
0
3
Dash dot (2x) ____  .  ____  .  ____  .  ___
72
65
73
4
40
50.8
49
25.4
74
0
49
-12.7
74
0
49
0
74
0
49
-12.7
74
0
0
LTYPE
5
3B
330
5
100
AcDbSymbolTableRecord
100
AcDbLinetypeTableRecord
2
DIVIDE
70
0
3
Divide ____ . . ____ . . ____ . . ____ . . ____
72
65
73
6
40
31.75
49
12.7
74
0
49
-6.35
74
0
49
0
74
0
49
-6.35
74
0
49
0
74
0
49
-6.35
74
0
0
LTYPE
5
3C
330
5
100
AcDbSymbolTableRecord
100
AcDbLinetypeTableRecord
2
DIVIDE2
70
0
3
Divide (.5x) __..__..__..__..__..__..__..__.._
72
65
73
6
40
15.875
49
6.35
74
0
49
-3.175
74
0
49
0
74
0
49
-3.175
74
0
49
0
74
0
49
-3.175
74
0
0
LTYPE
5
3D
330
5
100
AcDbSymbolTableRecord
100
AcDbLinetypeTableRecord
2
DIVIDEX2
70
0
3
Divide (2x) ________  .  .  ________  .  .  _
72
65
73
6
40
63.5
49
25.4
74
0
49
-12.7
74
0
49
0
74
0
49
-12.7
74
0
49
0
74
0
49
-12.7
74
0
0
LTYPE
5
3E
330
5
100
AcDbSymbolTableRecord
100
AcDbLinetypeTableRecord
2
BORDER
70
0
3
Border __ __ . __ __ . __ __ . __ __ . __ __ .
72
65
73
6
40
44.45
49
12.7
74
0
49
-6.35
74
0
49
12.7
74
0
49
-6.35
74
0
49
0
74
0
49
-6.35
74
0
0
LTYPE
5
3F
330
5
100
AcDbSymbolTableRecord
100
AcDbLinetypeTableRecord
2
BORDER2
70
0
3
Border (.5x) __.__.__.__.__.__.__.__.__.__.__.
72
65
73
6
40
22.225
49
6.35
74
0
49
-3.175
74
0
49
6.35
74
0
49
-3.175
74
0
49
0
74
0
49
-3.175
74
0
0
LTYPE
5
40
330
5
100
AcDbSymbolTableRecord
100
AcDbLinetypeTableRecord
2
BORDERX2
70
0
3
Border (2x) ____  ____  .  ____  ____  .  ___
72
65
73
6
40
88.9
49
25.4
74
0
49
-12.7
74
0
49
25.4
74
0
49
-12.7
74
0
49
0
74
0
49
-12.7
74
0
0
LTYPE
5
41
330
5
100
AcDbSymbolTableRecord
100
AcDbLinetypeTableRecord
2
CENTER
70
0
3
Center ____ _ ____ _ ____ _ ____ _ ____ _ ____
72
65
73
4
40
50.8
49
31.75
74
0
49
-6.35
74
0
49
6.35
74
0
49
-6.35
74
0
0
LTYPE
5
42
330
5
100
AcDbSymbolTableRecord
100
AcDbLinetypeTableRecord
2
CENTER2
70
0
3
Center (.5x) ___ _ ___ _ ___ _ ___ _ ___ _ ___
72
65
73
4
40
28.575
49
19.05
74
0
49
-3.175
74
0
49
3.175
74
0
49
-3.175
74
0
0
LTYPE
5
43
330
5
100
AcDbSymbolTableRecord
100
AcDbLinetypeTableRecord
2
CENTERX2
70
0
3
Center (2x) ________  __  ________  __  _____
72
65
73
4
40
101.6
49
63.5
74
0
49
-12.7
74
0
49
12.7
74
0
49
-12.7
74
0
0
ENDTAB
0
TABLE
2
LAYER
5
2
330
0
100
AcDbSymbolTable
70
1
0
LAYER
5
10
330
2
100
AcDbSymbolTableRecord
100
AcDbLayerTableRecord
2
0
70
0
62
7
6
CONTINUOUS
370
0
390
F
0
LAYER
5
44
330
2
100
AcDbSymbolTableRecord
100
AcDbLayerTableRecord
2
Dimensions
70
1
62
1
6
CONTINUOUS
290
0
370
0
390
F
0
LAYER
5
45
330
2
100
AcDbSymbolTableRecord
100
AcDbLayerTableRecord
2
DuetOutline
70
0
62
2
6
CONTINUOUS
370
0
390
F
0
LAYER
5
46
330
2
100
AcDbSymbolTableRecord
100
AcDbLayerTableRecord
2
FilamentPath
70
4
62
56
420
8421376
6
CONTINUOUS
370
0
390
F
0
LAYER
5
47
330
2
100
AcDbSymbolTableRecord
100
AcDbLayerTableRecord
2
FirstCut
70
0
62
1
6
CONTINUOUS
370
0
390
F
0
LAYER
5
48
330
2
100
AcDbSymbolTableRecord
100
AcDbLayerTableRecord
2
LeftSideOnly
70
0
62
6
6
CONTINUOUS
370
0
390
F
0
LAYER
5
49
330
2
100
AcDbSymbolTableRecord
100
AcDbLayerTableRecord
2
OriginalHoles
70
0
62
4
6
CONTINUOUS
370
0
390
F
0
LAYER
5
4A
330
2
100
AcDbSymbolTableRecord
100
AcDbLayerTableRecord
2
RightSideOnly
70
0
62
5
6
CONTINUOUS
370
0
390
F
0
LAYER
5
4B
330
2
100
AcDbSymbolTableRecord
100
AcDbLayerTableRecord
2
ground
70
1
62
6
6
DOT2
370
0
390
F
0
LAYER
5
4C
330
2
100
AcDbSymbolTableRecord
100
AcDbLayerTableRecord
2
guides
70
1
62
3
6
CONTINUOUS
290
0
370
0
390
F
0
ENDTAB
0
TABLE
2
STYLE
5
3
330
0
100
AcDbSymbolTable
70
3
0
STYLE
5
4D
330
2
100
AcDbSymbolTableRecord
100
AcDbTextStyleTableRecord
2
OpenGostTypeA-Regular
70
0
40
0
41
1
50
0
71
0
42
1
3
OpenGostTypeA-Regular
4

0
STYLE
5
4E
330
2
100
AcDbSymbolTableRecord
100
AcDbTextStyleTableRecord
2
opengosttypea-regular
70
0
40
0
41
1
50
0
71
0
42
1
3
opengosttypea-regular
4

0
STYLE
5
4F
330
2
100
AcDbSymbolTableRecord
100
AcDbTextStyleTableRecord
2
Standard
70
0
40
0
41
1
50
0
71
0
42
1
3
txt
4

0
ENDTAB
0
TABLE
2
VIEW
5
6
330
0
100
AcDbSymbolTable
70
0
0
ENDTAB
0
TABLE
2
UCS
5
7
330
0
100
AcDbSymbolTable
70
0
0
ENDTAB
0
TABLE
2
APPID
5
9
330
0
100
AcDbSymbolTable
70
1
0
APPID
5
12
330
9
100
AcDbSymbolTableRecord
100
AcDbRegAppTableRecord
2
ACAD
70
0
0
ENDTAB
0
TABLE
2
DIMSTYLE
5
A
330
0
100
AcDbSymbolTable
70
1
100
AcDbDimStyleTable
71
1
0
DIMSTYLE
105
50
330
A
100
AcDbSymbolTableRecord
100
AcDbDimStyleTableRecord
2
Standard
70
0
40
1
41
2.5
42
0.625
43
0.38
44
1.25
45
0
46
0
47
0
48
0
140
2.5
141
0.09
142
0
143
25.4
144
1
145
0
146
1
147
0.625
148
0
71
0
72
0
73
0
74
1
75
0
76
0
77
0
78
0
79
0
170
0
171
2
172
0
173
0
174
0
175
0
176
0
177
0
178
0
179
0
271
4
272
4
273
2
274
2
275
0
276
0
277
2
278
46
279
0
280
0
281
0
282
0
283
1
284
0
285
0
286
0
288
0
289
3
340
Standard
341

371
-2
372
-2
0
ENDTAB
0
TABLE
2
BLOCK_RECORD
5
1
330
0
100
AcDbSymbolTable
70
2
0
BLOCK_RECORD
5
1F
330
1
100
AcDbSymbolTableRecord
100
AcDbBlockTableRecord
2
*Model_Space
70
0
280
1
281
0
0
BLOCK_RECORD
5
1E
330
1
100
AcDbSymbolTableRecord
100
AcDbBlockTableRecord
2
*Paper_Space
70
0
280
1
281
0
0
BLOCK_RECORD
5
51
330
1
100
AcDbSymbolTableRecord
100
AcDbBlockTableRecord
2
*D1
70
0
280
1
281
0
0
BLOCK_RECORD
5
54
330
1
100
AcDbSymbolTableRecord
100
AcDbBlockTableRecord
2
*D2
70
0
280
1
281
0
0
BLOCK_RECORD
5
57
330
1
100
AcDbSymbolTableRecord
100
AcDbBlockTableRecord
2
*D3
70
0
280
1
281
0
0
BLOCK_RECORD
5
5A
330
1
100
AcDbSymbolTableRecord
100
AcDbBlockTableRecord
2
Duet
70
0
280
1
281
0
0
BLOCK_RECORD
5
5D
330
1
100
AcDbSymbolTableRecord
100
AcDbBlockTableRecord
2
DuetFull
70
0
280
1
281
0
0
ENDTAB
0
ENDSEC
0
SECTION
2
BLOCKS
0
BLOCK
5
20
330
1F
100
AcDbEntity
8
0
100
AcDbBlockBegin
2
*Model_Space
70
0
10
0
20
0
30
0
3
*Model_Space
1

0
ENDBLK
5
21
330
1F
100
AcDbEntity
8
0
100
AcDbBlockEnd
0
BLOCK
5
1C
330
1B
100
AcDbEntity
8
0
100
AcDbBlockBegin
2
*Paper_Space
70
0
10
0
20
0
30
0
3
*Paper_Space
1

0
ENDBLK
5
1D
330
1F
100
AcDbEntity
8
0
100
AcDbBlockEnd
0
BLOCK
5
52
330
51
100
AcDbEntity
8
0
100
AcDbBlockBegin
2
*D1
70
1
10
0
20
0
3
*D1
1

0
LINE
5
60
100
AcDbEntity
8
Dimensions
6
CONTINUOUS
62
7
370
0
100
AcDbLine
10
657.081604006
20
401
11
657.081604006
21
9.00500023149
0
SOLID
5
61
100
AcDbEntity
8
Dimensions
6
CONTINUOUS
62
7
370
0
100
AcDbTrace
10
657.081604006
20
401
30
0
11
657.497888664
21
398.5
31
0
12
656.665319348
22
398.5
32
0
13
656.665319348
23
398.5
33
0
0
SOLID
5
62
100
AcDbEntity
8
Dimensions
6
CONTINUOUS
62
7
370
0
100
AcDbTrace
10
657.081604006
20
9.00500023149
30
0
11
656.665319348
21
11.5050002315
31
0
12
657.497888664
22
11.5050002315
32
0
13
657.497888664
23
11.5050002315
33
0
0
MTEXT
5
63
100
AcDbEntity
8
Dimensions
6
CONTINUOUS
62
7
370
0
100
AcDbMText
10
655.206604006
20
205.002500116
30
0
40
2.5
41
11.1111111111
71
5
72
1
1
391.995
7
standard
210
0
220
0
230
1
50
90
73
2
44
1
0
LINE
5
64
100
AcDbEntity
8
Dimensions
6
CONTINUOUS
62
7
370
0
100
AcDbLine
10
569.453125
20
401
11
658.331604006
21
401
0
LINE
5
65
100
AcDbEntity
8
Dimensions
6
CONTINUOUS
62
7
370
0
100
AcDbLine
10
569.453125
20
9.00500023149
11
658.331604006
21
9.00500023149
0
ENDBLK
5
53
330
51
100
AcDbEntity
8
0
100
AcDbBlockEnd
0
BLOCK
5
55
330
54
100
AcDbEntity
8
0
100
AcDbBlockBegin
2
*D2
70
1
10
0
20
0
3
*D2
1

0
LINE
5
66
100
AcDbEntity
8
Dimensions
6
CONTINUOUS
62
7
370
0
100
AcDbLine
10
248.828125
20
-25.0000000001
11
568.828125
21
-25.0000000001
0
SOLID
5
67
100
AcDbEntity
8
Dimensions
6
CONTINUOUS
62
7
370
0
100
AcDbTrace
10
248.828125
20
-25.0000000001
30
0
11
251.328125
21
-24.5837153423
31
0
12
251.328125
22
-25.4162846579
32
0
13
251.328125
23
-25.4162846579
33
0
0
SOLID
5
68
100
AcDbEntity
8
Dimensions
6
CONTINUOUS
62
7
370
0
100
AcDbTrace
10
568.828125
20
-25.0000000001
30
0
11
566.328125
21
-25.4162846579
31
0
12
566.328125
22
-24.5837153423
32
0
13
566.328125
23
-24.5837153423
33
0
0
MTEXT
5
69
100
AcDbEntity
8
Dimensions
6
CONTINUOUS
62
7
370
0
100
AcDbMText
10
408.828125
20
-23.1250000001
30
0
40
2.5
41
5
71
5
72
1
1
320
7
standard
210
0
220
0
230
1
50
0
73
2
44
1
0
LINE
5
6A
100
AcDbEntity
8
Dimensions
6
CONTINUOUS
62
7
370
0
100
AcDbLine
10
248.828125
20
8.38000023149
11
248.828125
21
-26.2500000001
0
LINE
5
6B
100
AcDbEntity
8
Dimensions
6
CONTINUOUS
62
7
370
0
100
AcDbLine
10
568.828125
20
8.38000023149
11
568.828125
21
-26.2500000001
0
ENDBLK
5
56
330
54
100
AcDbEntity
8
0
100
AcDbBlockEnd
0
BLOCK
5
58
330
57
100
AcDbEntity
8
0
100
AcDbBlockBegin
2
*D3
70
1
10
0
20
0
3
*D3
1

0
LINE
5
6C
100
AcDbEntity
8
Dimensions
6
CONTINUOUS
62
7
370
0
100
AcDbLine
10
366.326350611
20
4.73956352001
11
428.328125
21
4.73956352001
0
SOLID
5
6D
100
AcDbEntity
8
Dimensions
6
CONTINUOUS
62
7
370
0
100
AcDbTrace
10
366.326350611
20
4.73956352001
30
0
11
368.826350611
21
5.15584817778
31
0
12
368.826350611
22
4.32327886224
32
0
13
368.826350611
23
4.32327886224
33
0
0
SOLID
5
6E
100
AcDbEntity
8
Dimensions
6
CONTINUOUS
62
7
370
0
100
AcDbTrace
10
428.328125
20
4.73956352001
30
0
11
425.828125
21
4.32327886224
31
0
12
425.828125
22
5.15584817778
32
0
13
425.828125
23
5.15584817778
33
0
0
MTEXT
5
6F
100
AcDbEntity
8
Dimensions
6
CONTINUOUS
62
7
370
0
100
AcDbMText
10
397.327237805
20
6.61456352001
30
0
40
2.5
41
11.1111111111
71
5
72
1
1
62.0018
7
standard
210
0
220
0
230
1
50
0
73
2
44
1
0
LINE
5
70
100
AcDbEntity
8
Dimensions
6
CONTINUOUS
62
7
370
0
100
AcDbLine
10
366.326350611
20
15.375
11
366.326350611
21
3.48956352001
0
LINE
5
71
100
AcDbEntity
8
Dimensions
6
CONTINUOUS
62
7
370
0
100
AcDbLine
10
428.328125
20
15.375
11
428.328125
21
3.48956352001
0
ENDBLK
5
59
330
57
100
AcDbEntity
8
0
100
AcDbBlockEnd
0
BLOCK
5
5B
330
5A
100
AcDbEntity
8
0
100
AcDbBlockBegin
2
Duet
70
0
10
0
20
0
3
Duet
1

0
LINE
5
72
100
AcDbEntity
8
0
6
ByLayer
62
256
370
-1
100
AcDbLine
10
-57.5
20
-80
11
57.5
21
-80
0
LINE
5
73
100
AcDbEntity
8
0
6
ByLayer
62
256
370
-1
100
AcDbLine
10
57.5
20
-80
11
57.5
21
80
0
LINE
5
74
100
AcDbEntity
8
0
6
ByLayer
62
256
370
-1
100
AcDbLine
10
57.5
20
80
11
-57.5
21
80
0
LINE
5
75
100
AcDbEntity
8
0
6
ByLayer
62
256
370
-1
100
AcDbLine
10
-57.5
20
80
11
-57.5
21
-80
0
MTEXT
5
76
100
AcDbEntity
8
0
6
ByLayer
62
256
370
-1
100
AcDbMText
10
2.07031250002
20
-71.69921875
30
0
40
5
41
13.8888888889
71
5
72
1
1
Duet
7
opengosttypea-regular
210
0
220
0
230
1
50
0
73
2
44
1
0
LINE
5
77
100
AcDbEntity
8
0
6
ByLayer
62
256
370
-1
100
AcDbLine
10
-57.5
20
80
11
57.5
21
-80
0
LINE
5
78
100
AcDbEntity
8
0
6
ByLayer
62
256
370
-1
100
AcDbLine
10
57.5
20
80
11
-57.5
21
-80
0
ENDBLK
5
5C
330
5A
100
AcDbEntity
8
0
100
AcDbBlockEnd
0
BLOCK
5
5E
330
5D
100
AcDbEntity
8
0
100
AcDbBlockBegin
2
DuetFull
70
0
10
0
20
0
3
DuetFull
1

0
INSERT
5
79
100
AcDbEntity
8
DuetOutline
6
ByLayer
62
256
370
-1
100
AcDbBlockReference
2
Duet
10
0
20
0
30
0
41
1
42
1
43
0
50
0
70
1
71
1
44
0
45
0
0
ELLIPSE
5
7A
100
AcDbEntity
8
DuetOutline
6
ByLayer
62
256
370
-1
100
AcDbEllipse
10
2.5
20
80
30
0
11
-44.0165625
21
0.0623437500644
31
0
40
0.454068613362
41
4.91874109407
42
0.00311927674459
0
ELLIPSE
5
7B
100
AcDbEntity
8
DuetOutline
6
ByLayer
62
256
370
-1
100
AcDbEllipse
10
-27.5
20
80
30
0
11
-30
21
0
31
0
40
0.914078125003
41
3.93656570224
42
6.28318530718
0
CIRCLE
5
7C
100
AcDbEntity
8
DuetOutline
6
ByLayer
62
256
370
-1
100
AcDbCircle
10
-22.5
20
-93
40
4
0
CIRCLE
5
7D
100
AcDbEntity
8
RightSideOnly
6
ByLayer
62
256
370
-1
100
AcDbCircle
10
-27.5
20
100
40
1.5
0
CIRCLE
5
7E
100
AcDbEntity
8
RightSideOnly
6
ByLayer
62
256
370
-1
100
AcDbCircle
10
-42.5
20
-90
40
1.5
0
CIRCLE
5
7F
100
AcDbEntity
8
RightSideOnly
6
ByLayer
62
256
370
-1
100
AcDbCircle
10
19.5
20
-90
40
1.5
0
ENDBLK
5
5F
330
5D
100
AcDbEntity
8
0
100
AcDbBlockEnd
0
ENDSEC
0
SECTION
2
ENTITIES
0
LINE
5
80
100
AcDbEntity
8
ground
6
ByLayer
62
256
370
-1
100
AcDbLine
10
100
20
0
11
101
21
0
0
LINE
5
81
100
AcDbEntity
8
guides
6
ByLayer
62
256
370
-1
100
AcDbLine
10
100
20
16
11
101
21
16
0
MTEXT
5
82
100
AcDbEntity
8
guides
6
CONTINUOUS
62
256
370
-1
100
AcDbMText
10
220.25
20
21.25
30
0
40
5
41
58.4722247937
71
5
72
1
1
Lower H bar axis
7
opengosttypea-regular
210
0
220
0
230
1
50
0
73
2
44
1
0
LINE
5
83
100
AcDbEntity
8
guides
6
ByLayer
62
256
370
-1
100
AcDbLine
10
100
20
241
11
101
21
241
0
LINE
5
84
100
AcDbEntity
8
guides
6
ByLayer
62
256
370
-1
100
AcDbLine
10
389.828125
20
128.5
11
389.828125
21
129.5
0
LINE
5
85
100
AcDbEntity
8
guides
6
ByLayer
62
256
370
-1
100
AcDbLine
10
427.828125
20
128.5
11
427.828125
21
129.5
0
LINE
5
86
100
AcDbEntity
8
guides
6
ByLayer
62
256
370
-1
100
AcDbLine
10
100
20
351
11
101
21
351
0
LINE
5
87
100
AcDbEntity
8
guides
6
ByLayer
62
256
370
-1
100
AcDbLine
10
462.828125
20
128.5
11
462.828125
21
129.5
0
MTEXT
5
88
100
AcDbEntity
8
guides
6
ByLayer
62
256
370
-1
100
AcDbMText
10
479.75
20
357.5
30
0
40
5
41
26.1111111111
71
5
72
1
1
Filament
7
opengosttypea-regular
210
0
220
0
230
1
50
0
73
2
44
1
0
CIRCLE
5
89
100
AcDbEntity
8
FilamentPath
6
ByLayer
62
256
370
-1
100
AcDbCircle
10
462.828125
20
351
40
1
0
CIRCLE
5
8A
100
AcDbEntity
8
OriginalHoles
6
ByLayer
62
256
370
-1
100
AcDbCircle
10
427.828125
20
241
40
3
0
CIRCLE
5
8B
100
AcDbEntity
8
OriginalHoles
6
ByLayer
62
256
370
-1
100
AcDbCircle
10
389.828125
20
241
40
3
0
DIMENSION
5
8C
100
AcDbEntity
8
Dimensions
6
ByLayer
62
256
370
-1
100
AcDbDimension
2
*D1
10
657.081604006
20
9.00500023149
30
0
11
655.206604006
21
205.002500116
31
0
70
32
71
5
72
0
3
Standard
53
0
210
0
220
0
230
1
100
AcDbAlignedDimension
13
568.828125
23
401
33
0
14
568.828125
24
9.00500023149
34
0
50
90
100
AcDbRotatedDimension
0
DIMENSION
5
8D
100
AcDbEntity
8
Dimensions
6
ByLayer
62
256
370
-1
100
AcDbDimension
2
*D2
10
568.828125
20
-25.0000000001
30
0
11
408.828125
21
-23.1250000001
31
0
70
32
71
5
72
0
3
Standard
53
0
210
0
220
0
230
1
100
AcDbAlignedDimension
13
248.828125
23
9.00500023149
33
0
14
568.828125
24
9.00500023149
34
0
100
AcDbRotatedDimension
0
CIRCLE
5
8E
100
AcDbEntity
8
FirstCut
6
ByLayer
62
256
370
-1
100
AcDbCircle
10
298.828125
20
16
40
3
0
CIRCLE
5
8F
100
AcDbEntity
8
FirstCut
6
ByLayer
62
256
370
-1
100
AcDbCircle
10
518.828125
20
16
40
3
0
CIRCLE
5
90
100
AcDbEntity
8
FirstCut
6
ByLayer
62
256
370
-1
100
AcDbCircle
10
389.828125
20
351
40
3
0
CIRCLE
5
91
100
AcDbEntity
8
FirstCut
6
ByLayer
62
256
370
-1
100
AcDbCircle
10
427.828125
20
351
40
3
0
CIRCLE
5
92
100
AcDbEntity
8
FirstCut
6
ByLayer
62
256
370
-1
100
AcDbCircle
10
415.328125
20
16
40
3
0
LINE
5
93
100
AcDbEntity
8
0
6
ByLayer
62
256
370
-1
100
AcDbLine
10
248.828125
20
204.772460938
11
248.828125
21
11.544921875
0
ARC
5
94
100
AcDbEntity
8
0
6
ByLayer
62
256
370
-1
100
AcDbCircle
10
251.828125
20
11.544921875
40
3
100
AcDbArc
50
180
51
270
0
LINE
5
95
100
AcDbEntity
8
0
6
ByLayer
62
256
370
-1
100
AcDbLine
10
568.828125
20
11.544921875
11
568.828125
21
204.772460938
0
ARC
5
96
100
AcDbEntity
8
0
6
ByLayer
62
256
370
-1
100
AcDbCircle
10
565.828125
20
11.544921875
40
3
100
AcDbArc
50
270
51
0
0
CIRCLE
5
97
100
AcDbEntity
8
LeftSideOnly
6
ByLayer
62
256
370
-1
100
AcDbCircle
10
462.828125
20
351
40
13.1619199992
0
DIMENSION
5
98
100
AcDbEntity
8
Dimensions
6
ByLayer
62
256
370
-1
100
AcDbDimension
2
*D3
10
428.328125
20
4.73956352001
30
0
11
397.327237805
21
6.61456352001
31
0
70
32
71
5
72
0
3
Standard
53
0
210
0
220
0
230
1
100
AcDbAlignedDimension
13
366.326350611
23
16
33
0
14
428.328125
24
16
34
0
100
AcDbRotatedDimension
0
ELLIPSE
5
99
100
AcDbEntity
8
RightSideOnly
6
ByLayer
62
256
370
-1
100
AcDbEllipse
10
327.981506304
20
15.9683555492
30
0
11
10.5318637896
21
0
31
0
40
0.706033260421
41
4.77017716934
42
5.93876552095
0
ELLIPSE
5
9A
100
AcDbEntity
8
RightSideOnly
6
ByLayer
62
256
370
-1
100
AcDbEllipse
10
347.879381117
20
8.544921875
30
0
11
-0.043980465112
21
12.4934495339
31
0
40
0.868825075192
41
5.10374064046
42
1.1636051121
0
INSERT
5
9B
100
AcDbEntity
8
RightSideOnly
6
ByLayer
62
256
370
-1
100
AcDbBlockReference
2
DuetFull
10
370.328125
20
106
30
0
41
1
42
1
43
0
50
0
70
1
71
1
44
0
45
0
0
LINE
5
9C
100
AcDbEntity
8
0
6
ByLayer
62
256
370
-1
100
AcDbLine
10
251.828125
20
8.544921875
11
328.589784951
21
8.544921875
0
LINE
5
9D
100
AcDbEntity
8
0
6
ByLayer
62
256
370
-1
100
AcDbLine
10
365.892051994
20
8.544921875
11
565.828125
21
8.544921875
0
ELLIPSE
5
9E
100
AcDbEntity
8
RightSideOnly
6
ByLayer
62
256
370
-1
100
AcDbEllipse
10
367.809899982
20
15.8564413508
30
0
11
10.5318637896
21
-2.62791009007e-08
31
0
40
0.706033260421
41
3.48601243982
42
4.52926766808
0
LINE
5
9F
100
AcDbEntity
8
guides
6
ByLayer
62
256
370
-1
100
AcDbLine
10
389.828125
20
351
11
427.828125
21
241
0
LINE
5
A0
100
AcDbEntity
8
guides
6
ByLayer
62
256
370
-1
100
AcDbLine
10
389.828125
20
241
11
427.828125
21
351
0
LINE
5
A1
100
AcDbEntity
8
guides
6
ByLayer
62
256
370
-1
100
AcDbLine
10
408.828125
20
296
11
408.828125
21
297
0
ARC
5
A2
100
AcDbEntity
8
RightSideOnly
6
ByLayer
62
256
370
-1
100
AcDbCircle
10
480.442007245
20
367.323578313
40
10.8528266554
100
AcDbArc
50
56.5233509942
51
141.858129453
0
ELLIPSE
5
A3
100
AcDbEntity
8
0
6
ByLayer
62
256
370
-1
100
AcDbEllipse
10
408.828125
20
204.772460938
30
0
11
0
21
196.227539062
31
0
40
0.815379944958
41
4.71238898038
42
5.77682021112
0
ARC
5
A4
100
AcDbEntity
8
RightSideOnly
6
ByLayer
62
256
370
-1
100
AcDbCircle
10
443.490959478
20
396.339784017
40
36.1292989289
100
AcDbArc
50
200.240378563
51
321.858630421
0
ARC
5
A5
100
AcDbEntity
8
RightSideOnly
6
ByLayer
62
256
370
-1
100
AcDbCircle
10
386.085540813
20
372.37315647
40
26.1550199276
100
AcDbArc
50
26.0042581892
51
99.7090365669
0
ELLIPSE
5
A6
100
AcDbEntity
8
LeftSideOnly
6
ByLayer
62
256
370
-1
100
AcDbEllipse
10
408.828125
20
204.772460938
30
0
11
0
21
196.227539062
31
0
40
0.815379944958
41
5.77682021112
42
0.170534716667
0
ELLIPSE
5
A7
100
AcDbEntity
8
0
6
ByLayer
62
256
370
-1
100
AcDbEllipse
10
408.828125
20
204.772460938
30
0
11
0
21
196.227539062
31
0
40
0.815379944958
41
0.170534716667
42
1.57079632679
0
MTEXT
5
A8
100
AcDbEntity
8
guides
6
ByLayer
62
256
370
-1
100
AcDbMText
10
408.828125
20
454.062500002
30
0
40
5
41
35.9722222222
71
5
72
1
1
Center line
7
OpenGostTypeA-Regular
210
0
220
0
230
1
50
90
73
2
44
1
0
MTEXT
5
A9
100
AcDbEntity
8
guides
6
ByLayer
62
256
370
-1
100
AcDbMText
10
228.125000001
20
351
30
0
40
5
41
92.2222247937
71
5
72
1
1
Extended Upper H bar axis
7
opengosttypea-regular
210
0
220
0
230
1
50
0
73
2
44
1
0
MTEXT
5
AA
100
AcDbEntity
8
guides
6
ByLayer
62
256
370
-1
100
AcDbMText
10
199.375000001
20
241
30
0
40
5
41
57.9166692381
71
5
72
1
1
Upper H bar axis
7
opengosttypea-regular
210
0
220
0
230
1
50
0
73
2
44
1
0
LINE
5
AB
100
AcDbEntity
8
LeftSideOnly
6
ByLayer
62
256
370
-1
100
AcDbLine
10
328.589784952
20
8.544921875
11
365.892051994
21
8.544921875
0
ENDSEC
0
SECTION
2
OBJECTS
0
DICTIONARY
5
C
330
0
100
AcDbDictionary
281
1
3
ACAD_GROUP
350
D
0
DICTIONARY
5
D
330
C
100
AcDbDictionary
281
1
0
ENDSEC
0
EOF
