solid OpenSCAD_Model
  facet normal -1 0 0
    outer loop
      vertex 5 5 3
      vertex 5 15 60
      vertex 5 15 3
    endloop
  endfacet
  facet normal -1 -0 0
    outer loop
      vertex 5 15 60
      vertex 5 5 3
      vertex 5 5 60
    endloop
  endfacet
  facet normal -0 0 1
    outer loop
      vertex 5 15 60
      vertex 15 5 60
      vertex 15 15 60
    endloop
  endfacet
  facet normal 0 0 1
    outer loop
      vertex 15 5 60
      vertex 5 15 60
      vertex 5 5 60
    endloop
  endfacet
  facet normal 1 -0 0
    outer loop
      vertex 15 5 60
      vertex 15 15 3
      vertex 15 15 60
    endloop
  endfacet
  facet normal 1 0 0
    outer loop
      vertex 15 15 3
      vertex 15 5 60
      vertex 15 5 3
    endloop
  endfacet
  facet normal 0 0 -1
    outer loop
      vertex 0 0 0
      vertex 20 20 0
      vertex 20 0 0
    endloop
  endfacet
  facet normal -0 0 -1
    outer loop
      vertex 20 20 0
      vertex 0 0 0
      vertex 0 20 0
    endloop
  endfacet
  facet normal 0 -1 0
    outer loop
      vertex 5 5 3
      vertex 15 5 60
      vertex 5 5 60
    endloop
  endfacet
  facet normal 0 -1 -0
    outer loop
      vertex 15 5 60
      vertex 5 5 3
      vertex 15 5 3
    endloop
  endfacet
  facet normal 0 1 -0
    outer loop
      vertex 15 15 3
      vertex 5 15 60
      vertex 15 15 60
    endloop
  endfacet
  facet normal 0 1 0
    outer loop
      vertex 5 15 60
      vertex 15 15 3
      vertex 5 15 3
    endloop
  endfacet
  facet normal -1 0 0
    outer loop
      vertex 0 0 0
      vertex 0 20 3
      vertex 0 20 0
    endloop
  endfacet
  facet normal -1 -0 0
    outer loop
      vertex 0 20 3
      vertex 0 0 0
      vertex 0 0 3
    endloop
  endfacet
  facet normal 0 0 1
    outer loop
      vertex 20 20 3
      vertex 15 15 3
      vertex 20 0 3
    endloop
  endfacet
  facet normal 0 0 1
    outer loop
      vertex 20 20 3
      vertex 5 15 3
      vertex 15 15 3
    endloop
  endfacet
  facet normal 0 0 1
    outer loop
      vertex 5 15 3
      vertex 0 20 3
      vertex 5 5 3
    endloop
  endfacet
  facet normal -0 0 1
    outer loop
      vertex 0 20 3
      vertex 5 15 3
      vertex 20 20 3
    endloop
  endfacet
  facet normal -0 0 1
    outer loop
      vertex 15 5 3
      vertex 20 0 3
      vertex 15 15 3
    endloop
  endfacet
  facet normal -0 0 1
    outer loop
      vertex 5 5 3
      vertex 20 0 3
      vertex 15 5 3
    endloop
  endfacet
  facet normal 0 0 1
    outer loop
      vertex 5 5 3
      vertex 0 0 3
      vertex 20 0 3
    endloop
  endfacet
  facet normal 0 0 1
    outer loop
      vertex 0 0 3
      vertex 5 5 3
      vertex 0 20 3
    endloop
  endfacet
  facet normal 1 -0 0
    outer loop
      vertex 20 0 3
      vertex 20 20 0
      vertex 20 20 3
    endloop
  endfacet
  facet normal 1 0 0
    outer loop
      vertex 20 20 0
      vertex 20 0 3
      vertex 20 0 0
    endloop
  endfacet
  facet normal 0 -1 0
    outer loop
      vertex 0 0 0
      vertex 20 0 3
      vertex 0 0 3
    endloop
  endfacet
  facet normal 0 -1 -0
    outer loop
      vertex 20 0 3
      vertex 0 0 0
      vertex 20 0 0
    endloop
  endfacet
  facet normal 0 1 -0
    outer loop
      vertex 20 20 0
      vertex 0 20 3
      vertex 20 20 3
    endloop
  endfacet
  facet normal 0 1 0
    outer loop
      vertex 0 20 3
      vertex 20 20 0
      vertex 0 20 0
    endloop
  endfacet
endsolid OpenSCAD_Model
